%YAML 1.1
%TAG !u! tag:unity3d.com,2011:
--- !u!21 &2100000
Material:
  serializedVersion: 3
  m_ObjectHideFlags: 0
  m_PrefabParentObject: {fileID: 0}
  m_PrefabInternal: {fileID: 0}
  m_Name: ShaderForgeInternal
  m_Shader: {fileID: 4800000, guid: 48f2655e02fb04346953a7b96e49a844, type: 3}
  m_ShaderKeywords: []
  m_CustomRenderQueue: -1
  m_SavedProperties:
    serializedVersion: 2
    m_TexEnvs:
      data:
        first:
          name: _node1215
        second:
          m_Texture: {fileID: 0}
          m_Scale: {x: 1, y: 1}
          m_Offset: {x: 0, y: 0}
    m_Floats:
      data:
        first:
          name: _DepthSide
        second: .100000001
    m_Colors:
      data:
        first:
          name: _Water
        second: {r: .356862813, g: .701960802, b: .882352889, a: 1}
      data:
        first:
          name: _WaterPattern
        second: {r: .172548994, g: .207843095, b: .196078405, a: 1}
