%YAML 1.1
%TAG !u! tag:unity3d.com,2011:
--- !u!1 &116060
GameObject:
  m_ObjectHideFlags: 0
  m_PrefabParentObject: {fileID: 0}
  m_PrefabInternal: {fileID: 100100000}
  serializedVersion: 4
  m_Component:
  - 4: {fileID: 416060}
  - 114: {fileID: 11400074}
  m_Layer: 0
  m_Name: AbilityList
  m_TagString: Untagged
  m_Icon: {fileID: 0}
  m_NavMeshLayer: 0
  m_StaticEditorFlags: 0
  m_IsActive: 1
--- !u!4 &416060
Transform:
  m_ObjectHideFlags: 1
  m_PrefabParentObject: {fileID: 0}
  m_PrefabInternal: {fileID: 100100000}
  m_GameObject: {fileID: 116060}
  m_LocalRotation: {x: 0, y: 0, z: 0, w: 1}
  m_LocalPosition: {x: 0, y: 0, z: 0}
  m_LocalScale: {x: 1, y: 1, z: 1}
  m_Children: []
  m_Father: {fileID: 0}
  m_RootOrder: 0
--- !u!114 &11400074
MonoBehaviour:
  m_ObjectHideFlags: 1
  m_PrefabParentObject: {fileID: 0}
  m_PrefabInternal: {fileID: 100100000}
  m_GameObject: {fileID: 116060}
  m_Enabled: 1
  m_EditorHideFlags: 0
  m_Script: {fileID: 11500000, guid: e2f75f225982f8744869ea893cee15d9, type: 3}
  m_Name: 
  m_EditorClassIdentifier: 
  list:
  - {fileID: 183162, guid: e0fa9d3222201964fbda6665d3c84bda, type: 2}
  - {fileID: 146820, guid: f115a8a1d285ae44296358b4ac486e4d, type: 2}
  - {fileID: 101860, guid: ddbe68fee0eb1ec4ab2d22ee47c38c49, type: 2}
  - {fileID: 103666, guid: 296da3575cffa294582e58049db6c740, type: 2}
  - {fileID: 146786, guid: 7bb758e3283ab774bacf0ad81b2d9468, type: 2}
  jump: {fileID: 11413066, guid: f76e8bbfc79efd548ab146e474c98f0d, type: 2}
--- !u!1001 &100100000
Prefab:
  m_ObjectHideFlags: 1
  serializedVersion: 2
  m_Modification:
    m_TransformParent: {fileID: 0}
    m_Modifications: []
    m_RemovedComponents: []
  m_ParentPrefab: {fileID: 0}
  m_RootGameObject: {fileID: 116060}
  m_IsPrefabParent: 1
  m_IsExploded: 1
