%YAML 1.1
%TAG !u! tag:unity3d.com,2011:
--- !u!74 &7400000
AnimationClip:
  m_ObjectHideFlags: 0
  m_PrefabParentObject: {fileID: 0}
  m_PrefabInternal: {fileID: 0}
  m_Name: jump
  serializedVersion: 4
  m_AnimationType: 1
  m_Compressed: 0
  m_UseHighQualityCurve: 1
  m_RotationCurves:
  - curve:
      serializedVersion: 2
      m_Curve:
      - time: 0
        value: {x: 0, y: -0, z: -.70120275, w: .712961972}
        inSlope: {x: 0, y: 0, z: 0, w: 0}
        outSlope: {x: 0, y: 0, z: 0, w: 0}
        tangentMode: 2
      - time: .958333313
        value: {x: 0, y: -0, z: -.70120275, w: .712961972}
        inSlope: {x: 0, y: 0, z: 0, w: 0}
        outSlope: {x: 0, y: 0, z: 0, w: 0}
        tangentMode: 4
      m_PreInfinity: 2
      m_PostInfinity: 2
    path: root_jnt
  - curve:
      serializedVersion: 2
      m_Curve:
      - time: 0
        value: {x: 0, y: -0, z: -0, w: 1}
        inSlope: {x: 0, y: 0, z: 0, w: 0}
        outSlope: {x: 0, y: 0, z: 0, w: 0}
        tangentMode: 1065353216
      - time: .958333313
        value: {x: 0, y: -0, z: -0, w: 1}
        inSlope: {x: 0, y: 0, z: 0, w: 0}
        outSlope: {x: 0, y: 0, z: 0, w: 0}
        tangentMode: 81
      m_PreInfinity: 2
      m_PostInfinity: 2
    path: root_jnt/back_jnt
  - curve:
      serializedVersion: 2
      m_Curve:
      - time: 0
        value: {x: 0, y: -0, z: -.00831501558, w: .999965429}
        inSlope: {x: 0, y: 0, z: 0, w: 0}
        outSlope: {x: 0, y: 0, z: 0, w: 0}
        tangentMode: 1065353216
      - time: .958333313
        value: {x: 0, y: -0, z: -.00831501558, w: .999965429}
        inSlope: {x: 0, y: 0, z: 0, w: 0}
        outSlope: {x: 0, y: 0, z: 0, w: 0}
        tangentMode: 81
      m_PreInfinity: 2
      m_PostInfinity: 2
    path: root_jnt/back_jnt/chest_jnt
  - curve:
      serializedVersion: 2
      m_Curve:
      - time: 0
        value: {x: -5.313053e-33, y: 2.11048119e-17, z: -1.72639971e-42, w: 1}
        inSlope: {x: -1.04083409e-16, y: .367394418, z: -4.4099775e-25, w: -.00281238556}
        outSlope: {x: -1.04083409e-16, y: .367394418, z: -4.4099775e-25, w: -.00281238556}
        tangentMode: 671687835
      - time: .0416666679
        value: {x: -4.33680869e-18, y: .0153081007, z: -1.83749063e-26, w: .999882817}
        inSlope: {x: -1.66533454e-16, y: .524702311, z: 3.41299611e-25, w: -.0114769945}
        outSlope: {x: -1.66533454e-16, y: .524702311, z: 3.41299611e-25, w: -.0114769945}
        tangentMode: 681574395
      - time: .125
        value: {x: -1.73472364e-17, y: .0590135343, z: 1.11022316e-16, w: .99825722}
        inSlope: {x: -4.16333667e-17, y: .0729098171, z: 0, w: -.00341320038}
        outSlope: {x: -4.16333667e-17, y: .0729098171, z: 0, w: -.00341320038}
        tangentMode: 0
      - time: .291666687
        value: {x: 0, y: -0, z: -0, w: 1}
        inSlope: {x: 3.1225006e-17, y: -.110713169, z: 3.0948289e-26, w: .000510692713}
        outSlope: {x: 3.1225006e-17, y: -.110713169, z: 3.0948289e-26, w: .000510692713}
        tangentMode: 0
      - time: .541666687
        value: {x: 0, y: -0, z: -0, w: 1}
        inSlope: {x: 0, y: 0, z: 0, w: 0}
        outSlope: {x: 0, y: 0, z: 0, w: 0}
        tangentMode: 1065353216
      - time: .958333313
        value: {x: 0, y: -0, z: -0, w: 1}
        inSlope: {x: 0, y: 0, z: 0, w: 0}
        outSlope: {x: 0, y: 0, z: 0, w: 0}
        tangentMode: 24
      m_PreInfinity: 2
      m_PostInfinity: 2
    path: root_jnt/back_jnt/chest_jnt/head_jnt
  - curve:
      serializedVersion: 2
      m_Curve:
      - time: 0
        value: {x: 0, y: 0, z: .707106829, w: .707106829}
        inSlope: {x: 0, y: 0, z: 0, w: 0}
        outSlope: {x: 0, y: 0, z: 0, w: 0}
        tangentMode: 1065353216
      - time: .958333313
        value: {x: 0, y: 0, z: .707106829, w: .707106829}
        inSlope: {x: 0, y: 0, z: 0, w: 0}
        outSlope: {x: 0, y: 0, z: 0, w: 0}
        tangentMode: 4
      m_PreInfinity: 2
      m_PostInfinity: 2
    path: root_jnt/back_jnt/chest_jnt/head_jnt/headtip_jnt
  - curve:
      serializedVersion: 2
      m_Curve:
      - time: 0
        value: {x: -3.21685317e-10, y: 1.18999116e-10, z: .937885046, w: .34694618}
        inSlope: {x: -.260650456, y: .0964208618, z: -.00150918961, w: -.000557899475}
        outSlope: {x: -.260650456, y: .0964208618, z: -.00150918961, w: -.000557899475}
        tangentMode: 1065353216
      - time: .0833333284
        value: {x: -.0310248528, y: .011476838, z: .93737179, w: .346756339}
        inSlope: {x: -.37220189, y: .137686431, z: -.0104699135, w: -.00387310982}
        outSlope: {x: -.37220189, y: .137686431, z: -.0104699135, w: -.00387310982}
        tangentMode: 0
      - time: .125
        value: {x: -.0418772623, y: .0154914055, z: .93694967, w: .346600175}
        inSlope: {x: .508042395, y: -.187937081, z: .00534009887, w: .00197553611}
        outSlope: {x: .508042395, y: -.187937081, z: .00534009887, w: .00197553611}
        tangentMode: 1048576000
      - time: .166666672
        value: {x: .0113120181, y: -.00418458739, z: .937816799, w: .346920967}
        inSlope: {x: 2.06974816, y: -.765649498, z: -.0984285101, w: -.0364111774}
        outSlope: {x: 2.06974816, y: -.765649498, z: -.0984285101, w: -.0364111774}
        tangentMode: 1065353216
      - time: .208333328
        value: {x: .130601719, y: -.0483127125, z: .928747296, w: .343565911}
        inSlope: {x: 2.91456127, y: -1.07816601, z: -.420421481, w: -.155524448}
        outSlope: {x: 2.91456127, y: -1.07816601, z: -.420421481, w: -.155524448}
        tangentMode: 0
      - time: .25000003
        value: {x: .254192144, y: -.0940317735, z: .902781665, w: .333960593}
        inSlope: {x: 2.3185792, y: -.857698023, z: -.582437634, w: -.215457529}
        outSlope: {x: 2.3185792, y: -.857698023, z: -.582437634, w: -.215457529}
        tangentMode: 0
      - time: .291666687
        value: {x: .323816687, y: -.119787566, z: .880210817, w: .325611115}
        inSlope: {x: 1.0718646, y: -.396508455, z: -.360835165, w: -.133481413}
        outSlope: {x: 1.0718646, y: -.396508455, z: -.360835165, w: -.133481413}
        tangentMode: 1065353216
      - time: .333333343
        value: {x: .343514174, y: -.127074137, z: .872712076, w: .322837144}
        inSlope: {x: .361102939, y: -.133580714, z: -.139943361, w: -.0517684221}
        outSlope: {x: .361102939, y: -.133580714, z: -.139943361, w: -.0517684221}
        tangentMode: 0
      - time: .541666687
        value: {x: .356956214, y: -.13204667, z: .867300749, w: .320835382}
        inSlope: {x: 0, y: 0, z: 0, w: 0}
        outSlope: {x: 0, y: 0, z: 0, w: 0}
        tangentMode: 0
      - time: .958333313
        value: {x: .356956214, y: -.13204667, z: .867300749, w: .320835382}
        inSlope: {x: 0, y: 0, z: 0, w: 0}
        outSlope: {x: 0, y: 0, z: 0, w: 0}
        tangentMode: 81
      m_PreInfinity: 2
      m_PostInfinity: 2
    path: root_jnt/back_jnt/chest_jnt/l_upperarm_jnt
  - curve:
      serializedVersion: 2
      m_Curve:
      - time: 0
        value: {x: 1.62052611e-11, y: 2.16519114e-09, z: .106166422, w: .994348407}
        inSlope: {x: -.0145222852, y: 1.75276566, z: .349175155, w: -.104437351}
        outSlope: {x: -.0145222852, y: 1.75276566, z: .349175155, w: -.104437351}
        tangentMode: 0
      - time: .0416666679
        value: {x: -.000605095236, y: .0730319023, z: .120715387, w: .98999685}
        inSlope: {x: -.0960241184, y: 2.485425, z: .43231526, w: -.317451268}
        outSlope: {x: -.0960241184, y: 2.485425, z: .43231526, w: -.317451268}
        tangentMode: 0
      - time: .0833333284
        value: {x: -.00800200924, y: .20711875, z: .142192692, w: .967894137}
        inSlope: {x: -.177886844, y: 2.45519114, z: .356164038, w: -.495357513}
        outSlope: {x: -.177886844, y: 2.45519114, z: .356164038, w: -.495357513}
        tangentMode: 0
      - time: .125
        value: {x: -.0154289985, y: .277631164, z: .150395721, w: .948717058}
        inSlope: {x: -.08912386, y: .846148849, z: .0984363407, w: -.230124921}
        outSlope: {x: -.08912386, y: .846148849, z: .0984363407, w: -.230124921}
        tangentMode: -1111534723
      - time: .166666672
        value: {x: -.0154289985, y: .277631164, z: .150395721, w: .948717058}
        inSlope: {x: 0, y: 0, z: 0, w: 0}
        outSlope: {x: 0, y: 0, z: 0, w: 0}
        tangentMode: 0
      - time: .25000003
        value: {x: -.0154289985, y: .277631164, z: .150395721, w: .948717058}
        inSlope: {x: 0, y: 0, z: 0, w: 0}
        outSlope: {x: 0, y: 0, z: 0, w: 0}
        tangentMode: 0
      - time: .291666687
        value: {x: -.0154289985, y: .277631164, z: .150395721, w: .948717058}
        inSlope: {x: .0944264084, y: -.562791586, z: .00981849711, w: .149386913}
        outSlope: {x: .0944264084, y: -.562791586, z: .00981849711, w: .149386913}
        tangentMode: 0
      - time: .333333343
        value: {x: -.00756013254, y: .230731875, z: .151213929, w: .961165965}
        inSlope: {x: .260029614, y: -1.62632644, z: .0109006781, w: .353791177}
        outSlope: {x: .260029614, y: -1.62632644, z: .0109006781, w: .353791177}
        tangentMode: 0
      - time: .37500003
        value: {x: .00624014251, y: .142103925, z: .151304111, w: .978199661}
        inSlope: {x: .249174386, y: -1.64349663, z: -.00727915997, w: .27457872}
        outSlope: {x: .249174386, y: -1.64349663, z: -.00727915997, w: .27457872}
        tangentMode: 0
      - time: .416666687
        value: {x: .0132044051, y: .0937737897, z: .150607333, w: .984047532}
        inSlope: {x: .0835711733, y: -.579961777, z: -.00836134143, w: .0701744705}
        outSlope: {x: .0835711733, y: -.579961777, z: -.00836134143, w: .0701744705}
        tangentMode: 57
      - time: .458333343
        value: {x: .0132044051, y: .0937737897, z: .150607333, w: .984047532}
        inSlope: {x: 0, y: 0, z: 0, w: 0}
        outSlope: {x: 0, y: 0, z: 0, w: 0}
        tangentMode: 0
      - time: .958333313
        value: {x: .0132044051, y: .0937737897, z: .150607333, w: .984047532}
        inSlope: {x: 0, y: 0, z: 0, w: 0}
        outSlope: {x: 0, y: 0, z: 0, w: 0}
        tangentMode: 0
      m_PreInfinity: 2
      m_PostInfinity: 2
    path: root_jnt/back_jnt/chest_jnt/l_upperarm_jnt/l_lowerarm_jnt
  - curve:
      serializedVersion: 2
      m_Curve:
      - time: 0
        value: {x: 0, y: 0, z: .061707817, w: .998094261}
        inSlope: {x: 0, y: 0, z: 0, w: 0}
        outSlope: {x: 0, y: 0, z: 0, w: 0}
        tangentMode: 0
      - time: .958333313
        value: {x: 0, y: 0, z: .061707817, w: .998094261}
        inSlope: {x: 0, y: 0, z: 0, w: 0}
        outSlope: {x: 0, y: 0, z: 0, w: 0}
        tangentMode: 0
      m_PreInfinity: 2
      m_PostInfinity: 2
    path: root_jnt/back_jnt/chest_jnt/l_upperarm_jnt/l_lowerarm_jnt/l_hand_jnt
  - curve:
      serializedVersion: 2
      m_Curve:
      - time: 0
        value: {x: -.0189724304, y: -.165506572, z: .0848055035, w: .982372463}
        inSlope: {x: 0, y: 0, z: 0, w: 0}
        outSlope: {x: 0, y: 0, z: 0, w: 0}
        tangentMode: -1474297861
      - time: .958333313
        value: {x: -.0189724304, y: -.165506572, z: .0848055035, w: .982372463}
        inSlope: {x: 0, y: 0, z: 0, w: 0}
        outSlope: {x: 0, y: 0, z: 0, w: 0}
        tangentMode: 0
      m_PreInfinity: 2
      m_PostInfinity: 2
    path: root_jnt/back_jnt/chest_jnt/l_upperarm_jnt/l_lowerarm_jnt/l_hand_jnt/l_fingerB1_jnt
  - curve:
      serializedVersion: 2
      m_Curve:
      - time: 0
        value: {x: .955958128, y: .293503106, z: -1.79718819e-17, w: -5.85355552e-17}
        inSlope: {x: 0, y: 0, z: 0, w: 0}
        outSlope: {x: 0, y: 0, z: 0, w: 0}
        tangentMode: 13
      - time: .958333313
        value: {x: .955958128, y: .293503106, z: -1.79718819e-17, w: -5.85355552e-17}
        inSlope: {x: 0, y: 0, z: 0, w: 0}
        outSlope: {x: 0, y: 0, z: 0, w: 0}
        tangentMode: 1065353216
      m_PreInfinity: 2
      m_PostInfinity: 2
    path: root_jnt/back_jnt/chest_jnt/l_upperarm_jnt/l_lowerarm_jnt/l_hand_jnt/l_fingerB1_jnt/l_fingerB2_jnt
  - curve:
      serializedVersion: 2
      m_Curve:
      - time: 0
        value: {x: .55401355, y: .83250767, z: -1.70528478e-17, w: -8.48999387e-17}
        inSlope: {x: 0, y: 0, z: 0, w: 0}
        outSlope: {x: 0, y: 0, z: 0, w: 0}
        tangentMode: -1537422131
      - time: .958333313
        value: {x: .55401355, y: .83250767, z: -1.70528478e-17, w: -8.48999387e-17}
        inSlope: {x: 0, y: 0, z: 0, w: 0}
        outSlope: {x: 0, y: 0, z: 0, w: 0}
        tangentMode: 0
      m_PreInfinity: 2
      m_PostInfinity: 2
    path: root_jnt/back_jnt/chest_jnt/l_upperarm_jnt/l_lowerarm_jnt/l_hand_jnt/l_fingerB1_jnt/l_fingerB2_jnt/l_fingerB2tip_jnt
  - curve:
      serializedVersion: 2
      m_Curve:
      - time: 0
        value: {x: -.0123979338, y: .0924954787, z: .0895750895, w: .991598308}
        inSlope: {x: 0, y: 0, z: 0, w: 0}
        outSlope: {x: 0, y: 0, z: 0, w: 0}
        tangentMode: 1065353216
      - time: .958333313
        value: {x: -.0123979338, y: .0924954787, z: .0895750895, w: .991598308}
        inSlope: {x: 0, y: 0, z: 0, w: 0}
        outSlope: {x: 0, y: 0, z: 0, w: 0}
        tangentMode: 4
      m_PreInfinity: 2
      m_PostInfinity: 2
    path: root_jnt/back_jnt/chest_jnt/l_upperarm_jnt/l_lowerarm_jnt/l_hand_jnt/l_fingerA1_jnt
  - curve:
      serializedVersion: 2
      m_Curve:
      - time: 0
        value: {x: .955958128, y: .293503106, z: 1.79718819e-17, w: 5.85355552e-17}
        inSlope: {x: 0, y: 0, z: 0, w: 0}
        outSlope: {x: 0, y: 0, z: 0, w: 0}
        tangentMode: 0
      - time: .958333313
        value: {x: .955958128, y: .293503106, z: 1.79718819e-17, w: 5.85355552e-17}
        inSlope: {x: 0, y: 0, z: 0, w: 0}
        outSlope: {x: 0, y: 0, z: 0, w: 0}
        tangentMode: 1065353216
      m_PreInfinity: 2
      m_PostInfinity: 2
    path: root_jnt/back_jnt/chest_jnt/l_upperarm_jnt/l_lowerarm_jnt/l_hand_jnt/l_fingerA1_jnt/l_fingerA2_jnt
  - curve:
      serializedVersion: 2
      m_Curve:
      - time: 0
        value: {x: .55401355, y: .83250767, z: -1.70528478e-17, w: -8.48999387e-17}
        inSlope: {x: 0, y: 0, z: 0, w: 0}
        outSlope: {x: 0, y: 0, z: 0, w: 0}
        tangentMode: 999808169
      - time: .958333313
        value: {x: .55401355, y: .83250767, z: -1.70528478e-17, w: -8.48999387e-17}
        inSlope: {x: 0, y: 0, z: 0, w: 0}
        outSlope: {x: 0, y: 0, z: 0, w: 0}
        tangentMode: 1060003087
      m_PreInfinity: 2
      m_PostInfinity: 2
    path: root_jnt/back_jnt/chest_jnt/l_upperarm_jnt/l_lowerarm_jnt/l_hand_jnt/l_fingerA1_jnt/l_fingerA2_jnt/l_fingerA2tip_jnt
  - curve:
      serializedVersion: 2
      m_Curve:
      - time: 0
        value: {x: .517290771, y: .442838609, z: .0717240423, w: .728807211}
        inSlope: {x: 0, y: 0, z: 0, w: 0}
        outSlope: {x: 0, y: 0, z: 0, w: 0}
        tangentMode: 1065353216
      - time: .958333313
        value: {x: .517290771, y: .442838609, z: .0717240423, w: .728807211}
        inSlope: {x: 0, y: 0, z: 0, w: 0}
        outSlope: {x: 0, y: 0, z: 0, w: 0}
        tangentMode: 4
      m_PreInfinity: 2
      m_PostInfinity: 2
    path: root_jnt/back_jnt/chest_jnt/l_upperarm_jnt/l_lowerarm_jnt/l_hand_jnt/l_thumb1_jnt
  - curve:
      serializedVersion: 2
      m_Curve:
      - time: 0
        value: {x: .813414335, y: -.00977484882, z: .113639608, w: .570392609}
        inSlope: {x: 0, y: 0, z: 0, w: 0}
        outSlope: {x: 0, y: 0, z: 0, w: 0}
        tangentMode: -1499463677
      - time: .958333313
        value: {x: .813414335, y: -.00977484882, z: .113639608, w: .570392609}
        inSlope: {x: 0, y: 0, z: 0, w: 0}
        outSlope: {x: 0, y: 0, z: 0, w: 0}
        tangentMode: -1103785381
      m_PreInfinity: 2
      m_PostInfinity: 2
    path: root_jnt/back_jnt/chest_jnt/l_upperarm_jnt/l_lowerarm_jnt/l_hand_jnt/l_thumb1_jnt/l_thumb2_jnt
  - curve:
      serializedVersion: 2
      m_Curve:
      - time: 0
        value: {x: .884427249, y: .163771495, z: .0857479051, w: .428502828}
        inSlope: {x: 0, y: 0, z: 0, w: 0}
        outSlope: {x: 0, y: 0, z: 0, w: 0}
        tangentMode: 0
      - time: .958333313
        value: {x: .884427249, y: .163771495, z: .0857479051, w: .428502828}
        inSlope: {x: 0, y: 0, z: 0, w: 0}
        outSlope: {x: 0, y: 0, z: 0, w: 0}
        tangentMode: 0
      m_PreInfinity: 2
      m_PostInfinity: 2
    path: root_jnt/back_jnt/chest_jnt/l_upperarm_jnt/l_lowerarm_jnt/l_hand_jnt/l_thumb1_jnt/l_thumb2_jnt/l_thumb2tip_jnt
  - curve:
      serializedVersion: 2
      m_Curve:
      - time: 0
        value: {x: .937885046, y: .346946299, z: 3.21685345e-10, w: -1.18999102e-10}
        inSlope: {x: -.00150918961, y: -.000558614731, z: .260650486, w: -.096420899}
        outSlope: {x: -.00150918961, y: -.000558614731, z: .260650486, w: -.096420899}
        tangentMode: 0
      - time: .0833333284
        value: {x: .937371731, y: .346756369, z: .031024849, w: -.011476839}
        inSlope: {x: -.0104706287, y: -.00387346745, z: .37220189, w: -.137686446}
        outSlope: {x: -.0104706287, y: -.00387346745, z: .37220189, w: -.137686446}
        tangentMode: 1065353216
      - time: .125
        value: {x: .936949611, y: .346600235, z: .0418772623, w: -.0154914083}
        inSlope: {x: .00556468917, y: .00205886341, z: -.488036871, w: .180536598}
        outSlope: {x: .00556468917, y: .00205886341, z: -.488036871, w: .180536598}
        tangentMode: 0
      - time: .166666672
        value: {x: .937835455, y: .346927941, z: -.00964489579, w: .00356787909}
        inSlope: {x: -.0911243185, y: -.0337089375, z: -2.01689911, w: .746099532}
        outSlope: {x: -.0911243185, y: -.0337089375, z: -2.01689911, w: .746099532}
        tangentMode: 0
      - time: .208333328
        value: {x: .929355919, y: .343791157, z: -.126197636, w: .0466835424}
        inSlope: {x: -.40453279, y: -.149646834, z: -2.87674952, w: 1.06417894}
        outSlope: {x: -.40453279, y: -.149646834, z: -2.87674952, w: 1.06417894}
        tangentMode: 1065353216
      - time: .25000003
        value: {x: .904124379, y: .334457368, z: -.249374047, w: .092249468}
        inSlope: {x: -.589741111, y: -.218159765, z: -2.37142825, w: .877248406}
        outSlope: {x: -.589741111, y: -.218159765, z: -2.37142825, w: .877248406}
        tangentMode: 0
      - time: .291666687
        value: {x: .880210817, y: .325611174, z: -.323816687, w: .119787589}
        inSlope: {x: -.3944107, y: -.145901829, z: -1.17377305, w: .434207022}
        outSlope: {x: -.3944107, y: -.145901829, z: -1.17377305, w: .434207022}
        tangentMode: 0
      - time: .37500003
        value: {x: .867801249, y: .321020573, z: -.355737656, w: .131595924}
        inSlope: {x: -.0474729352, y: -.017561309, z: -.117213205, w: .0433598571}
        outSlope: {x: -.0474729352, y: -.017561309, z: -.117213205, w: .0433598571}
        tangentMode: 1065353216
      - time: .625
        value: {x: .867300749, y: .320835441, z: -.356956214, w: .1320467}
        inSlope: {x: 0, y: 0, z: 0, w: 0}
        outSlope: {x: 0, y: 0, z: 0, w: 0}
        tangentMode: 1040187392
      - time: .958333313
        value: {x: .867300749, y: .320835441, z: -.356956214, w: .1320467}
        inSlope: {x: 0, y: 0, z: 0, w: 0}
        outSlope: {x: 0, y: 0, z: 0, w: 0}
        tangentMode: 1065353216
      m_PreInfinity: 2
      m_PostInfinity: 2
    path: root_jnt/back_jnt/chest_jnt/r_upperarm_jnt
  - curve:
      serializedVersion: 2
      m_Curve:
      - time: 0
        value: {x: 1.62052611e-11, y: 2.16519114e-09, z: .106166422, w: .994348407}
        inSlope: {x: -.0145222852, y: 1.75276566, z: .349175155, w: -.104437351}
        outSlope: {x: -.0145222852, y: 1.75276566, z: .349175155, w: -.104437351}
        tangentMode: 0
      - time: .0416666679
        value: {x: -.000605095236, y: .0730319023, z: .120715387, w: .98999685}
        inSlope: {x: -.0960241184, y: 2.485425, z: .43231526, w: -.317451268}
        outSlope: {x: -.0960241184, y: 2.485425, z: .43231526, w: -.317451268}
        tangentMode: 2
      - time: .0833333284
        value: {x: -.00800200924, y: .20711875, z: .142192692, w: .967894137}
        inSlope: {x: -.177886844, y: 2.45519114, z: .356164038, w: -.495357513}
        outSlope: {x: -.177886844, y: 2.45519114, z: .356164038, w: -.495357513}
        tangentMode: 0
      - time: .125
        value: {x: -.0154289985, y: .277631164, z: .150395721, w: .948717058}
        inSlope: {x: -.08912386, y: .846148849, z: .0984363407, w: -.230124921}
        outSlope: {x: -.08912386, y: .846148849, z: .0984363407, w: -.230124921}
        tangentMode: 0
      - time: .166666672
        value: {x: -.0154289985, y: .277631164, z: .150395721, w: .948717058}
        inSlope: {x: 0, y: 0, z: 0, w: 0}
        outSlope: {x: 0, y: 0, z: 0, w: 0}
        tangentMode: 0
      - time: .25000003
        value: {x: -.0154289985, y: .277631164, z: .150395721, w: .948717058}
        inSlope: {x: 0, y: 0, z: 0, w: 0}
        outSlope: {x: 0, y: 0, z: 0, w: 0}
        tangentMode: 0
      - time: .291666687
        value: {x: -.0154289985, y: .277631164, z: .150395721, w: .948717058}
        inSlope: {x: .0944264084, y: -.562791586, z: .00981849711, w: .149386913}
        outSlope: {x: .0944264084, y: -.562791586, z: .00981849711, w: .149386913}
        tangentMode: 0
      - time: .333333343
        value: {x: -.00756013254, y: .230731875, z: .151213929, w: .961165965}
        inSlope: {x: .260029614, y: -1.62632644, z: .0109006781, w: .353791177}
        outSlope: {x: .260029614, y: -1.62632644, z: .0109006781, w: .353791177}
        tangentMode: 15
      - time: .37500003
        value: {x: .00624014251, y: .142103925, z: .151304111, w: .978199661}
        inSlope: {x: .249174386, y: -1.64349663, z: -.00727915997, w: .27457872}
        outSlope: {x: .249174386, y: -1.64349663, z: -.00727915997, w: .27457872}
        tangentMode: 0
      - time: .416666687
        value: {x: .0132044051, y: .0937737897, z: .150607333, w: .984047532}
        inSlope: {x: .0835711733, y: -.579961777, z: -.00836134143, w: .0701744705}
        outSlope: {x: .0835711733, y: -.579961777, z: -.00836134143, w: .0701744705}
        tangentMode: 0
      - time: .458333343
        value: {x: .0132044051, y: .0937737897, z: .150607333, w: .984047532}
        inSlope: {x: 0, y: 0, z: 0, w: 0}
        outSlope: {x: 0, y: 0, z: 0, w: 0}
        tangentMode: 1122409072
      - time: .958333313
        value: {x: .0132044051, y: .0937737897, z: .150607333, w: .984047532}
        inSlope: {x: 0, y: 0, z: 0, w: 0}
        outSlope: {x: 0, y: 0, z: 0, w: 0}
        tangentMode: 0
      m_PreInfinity: 2
      m_PostInfinity: 2
    path: root_jnt/back_jnt/chest_jnt/r_upperarm_jnt/r_lowerarm_jnt
  - curve:
      serializedVersion: 2
      m_Curve:
      - time: 0
        value: {x: 0, y: 0, z: .061707817, w: .998094261}
        inSlope: {x: 0, y: 0, z: 0, w: 0}
        outSlope: {x: 0, y: 0, z: 0, w: 0}
        tangentMode: 2
      - time: .958333313
        value: {x: 0, y: 0, z: .061707817, w: .998094261}
        inSlope: {x: 0, y: 0, z: 0, w: 0}
        outSlope: {x: 0, y: 0, z: 0, w: 0}
        tangentMode: 15
      m_PreInfinity: 2
      m_PostInfinity: 2
    path: root_jnt/back_jnt/chest_jnt/r_upperarm_jnt/r_lowerarm_jnt/r_hand_jnt
  - curve:
      serializedVersion: 2
      m_Curve:
      - time: 0
        value: {x: -.0189724304, y: -.165506572, z: .0848055035, w: .982372463}
        inSlope: {x: 0, y: 0, z: 0, w: 0}
        outSlope: {x: 0, y: 0, z: 0, w: 0}
        tangentMode: 0
      - time: .958333313
        value: {x: -.0189724304, y: -.165506572, z: .0848055035, w: .982372463}
        inSlope: {x: 0, y: 0, z: 0, w: 0}
        outSlope: {x: 0, y: 0, z: 0, w: 0}
        tangentMode: 0
      m_PreInfinity: 2
      m_PostInfinity: 2
    path: root_jnt/back_jnt/chest_jnt/r_upperarm_jnt/r_lowerarm_jnt/r_hand_jnt/r_fingerB1_jnt
  - curve:
      serializedVersion: 2
      m_Curve:
      - time: 0
        value: {x: .955958128, y: .293503106, z: -1.79718819e-17, w: -5.85355552e-17}
        inSlope: {x: 0, y: 0, z: 0, w: 0}
        outSlope: {x: 0, y: 0, z: 0, w: 0}
        tangentMode: 1058145600
      - time: .958333313
        value: {x: .955958128, y: .293503106, z: -1.79718819e-17, w: -5.85355552e-17}
        inSlope: {x: 0, y: 0, z: 0, w: 0}
        outSlope: {x: 0, y: 0, z: 0, w: 0}
        tangentMode: 0
      m_PreInfinity: 2
      m_PostInfinity: 2
    path: root_jnt/back_jnt/chest_jnt/r_upperarm_jnt/r_lowerarm_jnt/r_hand_jnt/r_fingerB1_jnt/r_fingerB2_jnt
  - curve:
      serializedVersion: 2
      m_Curve:
      - time: 0
        value: {x: .55401355, y: .83250767, z: -8.48999387e-17, w: 1.70528478e-17}
        inSlope: {x: 0, y: 0, z: 0, w: 0}
        outSlope: {x: 0, y: 0, z: 0, w: 0}
        tangentMode: 0
      - time: .958333313
        value: {x: .55401355, y: .83250767, z: -8.48999387e-17, w: 1.70528478e-17}
        inSlope: {x: 0, y: 0, z: 0, w: 0}
        outSlope: {x: 0, y: 0, z: 0, w: 0}
        tangentMode: 0
      m_PreInfinity: 2
      m_PostInfinity: 2
    path: root_jnt/back_jnt/chest_jnt/r_upperarm_jnt/r_lowerarm_jnt/r_hand_jnt/r_fingerB1_jnt/r_fingerB2_jnt/r_fingerB2tip_jnt
  - curve:
      serializedVersion: 2
      m_Curve:
      - time: 0
        value: {x: -.0123979338, y: .0924954787, z: .0895750895, w: .991598308}
        inSlope: {x: 0, y: 0, z: 0, w: 0}
        outSlope: {x: 0, y: 0, z: 0, w: 0}
        tangentMode: 1065353216
      - time: .958333313
        value: {x: -.0123979338, y: .0924954787, z: .0895750895, w: .991598308}
        inSlope: {x: 0, y: 0, z: 0, w: 0}
        outSlope: {x: 0, y: 0, z: 0, w: 0}
        tangentMode: 0
      m_PreInfinity: 2
      m_PostInfinity: 2
    path: root_jnt/back_jnt/chest_jnt/r_upperarm_jnt/r_lowerarm_jnt/r_hand_jnt/r_fingerA1_jnt
  - curve:
      serializedVersion: 2
      m_Curve:
      - time: 0
        value: {x: .955958128, y: .293503106, z: -1.79718819e-17, w: -5.85355552e-17}
        inSlope: {x: 0, y: 0, z: 0, w: 0}
        outSlope: {x: 0, y: 0, z: 0, w: 0}
        tangentMode: 0
      - time: .958333313
        value: {x: .955958128, y: .293503106, z: -1.79718819e-17, w: -5.85355552e-17}
        inSlope: {x: 0, y: 0, z: 0, w: 0}
        outSlope: {x: 0, y: 0, z: 0, w: 0}
        tangentMode: -1087143418
      m_PreInfinity: 2
      m_PostInfinity: 2
    path: root_jnt/back_jnt/chest_jnt/r_upperarm_jnt/r_lowerarm_jnt/r_hand_jnt/r_fingerA1_jnt/r_fingerA2_jnt
  - curve:
      serializedVersion: 2
      m_Curve:
      - time: 0
        value: {x: .55401355, y: .83250767, z: -1.70528478e-17, w: -8.48999387e-17}
        inSlope: {x: 0, y: 0, z: 0, w: 0}
        outSlope: {x: 0, y: 0, z: 0, w: 0}
        tangentMode: 0
      - time: .958333313
        value: {x: .55401355, y: .83250767, z: -1.70528478e-17, w: -8.48999387e-17}
        inSlope: {x: 0, y: 0, z: 0, w: 0}
        outSlope: {x: 0, y: 0, z: 0, w: 0}
        tangentMode: 1063955115
      m_PreInfinity: 2
      m_PostInfinity: 2
    path: root_jnt/back_jnt/chest_jnt/r_upperarm_jnt/r_lowerarm_jnt/r_hand_jnt/r_fingerA1_jnt/r_fingerA2_jnt/r_fingerA2tip_jnt
  - curve:
      serializedVersion: 2
      m_Curve:
      - time: 0
        value: {x: .517290771, y: .442838609, z: .0717240423, w: .728807211}
        inSlope: {x: 0, y: 0, z: 0, w: 0}
        outSlope: {x: 0, y: 0, z: 0, w: 0}
        tangentMode: 0
      - time: .958333313
        value: {x: .517290771, y: .442838609, z: .0717240423, w: .728807211}
        inSlope: {x: 0, y: 0, z: 0, w: 0}
        outSlope: {x: 0, y: 0, z: 0, w: 0}
        tangentMode: 1065353216
      m_PreInfinity: 2
      m_PostInfinity: 2
    path: root_jnt/back_jnt/chest_jnt/r_upperarm_jnt/r_lowerarm_jnt/r_hand_jnt/r_thumb1_jnt
  - curve:
      serializedVersion: 2
      m_Curve:
      - time: 0
        value: {x: .813414335, y: -.00977484882, z: .113639608, w: .570392609}
        inSlope: {x: 0, y: 0, z: 0, w: 0}
        outSlope: {x: 0, y: 0, z: 0, w: 0}
        tangentMode: 1065353216
      - time: .958333313
        value: {x: .813414335, y: -.00977484882, z: .113639608, w: .570392609}
        inSlope: {x: 0, y: 0, z: 0, w: 0}
        outSlope: {x: 0, y: 0, z: 0, w: 0}
        tangentMode: 1400139365
      m_PreInfinity: 2
      m_PostInfinity: 2
    path: root_jnt/back_jnt/chest_jnt/r_upperarm_jnt/r_lowerarm_jnt/r_hand_jnt/r_thumb1_jnt/r_thumb2_jnt
  - curve:
      serializedVersion: 2
      m_Curve:
      - time: 0
        value: {x: .884427249, y: .163771495, z: .0857479051, w: .428502828}
        inSlope: {x: 0, y: 0, z: 0, w: 0}
        outSlope: {x: 0, y: 0, z: 0, w: 0}
        tangentMode: 1280331520
      - time: .958333313
        value: {x: .884427249, y: .163771495, z: .0857479051, w: .428502828}
        inSlope: {x: 0, y: 0, z: 0, w: 0}
        outSlope: {x: 0, y: 0, z: 0, w: 0}
        tangentMode: -1605611441
      m_PreInfinity: 2
      m_PostInfinity: 2
    path: root_jnt/back_jnt/chest_jnt/r_upperarm_jnt/r_lowerarm_jnt/r_hand_jnt/r_thumb1_jnt/r_thumb2_jnt/r_thumb2tip_jnt
  - curve:
      serializedVersion: 2
      m_Curve:
      - time: 0
        value: {x: .0468522571, y: .681405306, z: .725610673, w: .0835515335}
        inSlope: {x: -2.18370175, y: -.00714826584, z: -.433002949, w: 2.38689423}
        outSlope: {x: -2.18370175, y: -.00714826584, z: -.433002949, w: 2.38689423}
        tangentMode: 0
      - time: .0416666679
        value: {x: -.0441353172, y: .681107461, z: .707568884, w: .183005467}
        inSlope: {x: -1.95421004, y: -.117371328, z: -.519664764, w: 2.17057419}
        outSlope: {x: -1.95421004, y: -.117371328, z: -.519664764, w: 2.17057419}
        tangentMode: 0
      - time: .0833333284
        value: {x: -.115998574, y: .671624362, z: .682305276, w: .264432728}
        inSlope: {x: -1.20504332, y: -.187538624, z: -.46244216, w: 1.37657714}
        outSlope: {x: -1.20504332, y: -.187538624, z: -.46244216, w: 1.37657714}
        tangentMode: 0
      - time: .125
        value: {x: -.144555598, y: .665479243, z: .669032037, w: .297720224}
        inSlope: {x: -.416614532, y: -.0795199797, z: -.194894299, w: .455121458}
        outSlope: {x: -.416614532, y: -.0795199797, z: -.194894299, w: .455121458}
        tangentMode: 0
      - time: .166666672
        value: {x: -.150716454, y: .664997697, z: .666064084, w: .302359521}
        inSlope: {x: -.488270491, y: -.0881653056, z: -.25500232, w: .459878415}
        outSlope: {x: -.488270491, y: -.0881653056, z: -.25500232, w: .459878415}
        tangentMode: 0
      - time: .208333328
        value: {x: -.185244799, y: .658132136, z: .647781849, w: .336043417}
        inSlope: {x: -1.36939752, y: -.390343547, z: -.850724936, w: 1.4005115}
        outSlope: {x: -1.36939752, y: -.390343547, z: -.850724936, w: 1.4005115}
        tangentMode: 1034594987
      - time: .25000003
        value: {x: -.264832944, y: .632469058, z: .595170319, w: .419068843}
        inSlope: {x: -2.13790083, y: -.887978554, z: -1.71811724, w: 2.22705221}
        outSlope: {x: -2.13790083, y: -.887978554, z: -1.71811724, w: 2.22705221}
        tangentMode: 1065353216
      - time: .291666687
        value: {x: -.363403231, y: .584133923, z: .504605412, w: .521631122}
        inSlope: {x: -2.15670586, y: -1.23849058, z: -2.34483337, w: 2.19549274}
        outSlope: {x: -2.15670586, y: -1.23849058, z: -2.34483337, w: 2.19549274}
        tangentMode: 0
      - time: .333333343
        value: {x: -.444558382, y: .529261529, z: .399767578, w: .602026522}
        inSlope: {x: -1.62866759, y: -1.19856906, z: -2.44774079, w: 1.57263064}
        outSlope: {x: -1.62866759, y: -1.19856906, z: -2.44774079, w: 1.57263064}
        tangentMode: 0
      - time: .416666687
        value: {x: -.526288927, y: .461296618, z: .229069754, w: .676574051}
        inSlope: {x: -.414684653, y: -.338619649, z: -1.18602872, w: .363852084}
        outSlope: {x: -.414684653, y: -.338619649, z: -1.18602872, w: .363852084}
        tangentMode: 0
      - time: .5
        value: {x: -.533682585, y: .456034869, z: .201791286, w: .683004677}
        inSlope: {x: 0, y: 0, z: 0, w: 0}
        outSlope: {x: 0, y: 0, z: 0, w: 0}
        tangentMode: 606076931
      - time: .958333313
        value: {x: -.533682585, y: .456034869, z: .201791286, w: .683004677}
        inSlope: {x: 0, y: 0, z: 0, w: 0}
        outSlope: {x: 0, y: 0, z: 0, w: 0}
        tangentMode: 606076939
      m_PreInfinity: 2
      m_PostInfinity: 2
    path: root_jnt/l_upperleg_jnt
  - curve:
      serializedVersion: 2
      m_Curve:
      - time: 0
        value: {x: 0, y: 0, z: .0368409306, w: .999321163}
        inSlope: {x: 0, y: 0, z: 5.13749552, w: -.751416206}
        outSlope: {x: 0, y: 0, z: 5.13749552, w: -.751416206}
        tangentMode: 1065353216
      - time: .0416666679
        value: {x: 0, y: 0, z: .250903249, w: .968012154}
        inSlope: {x: 0, y: 0, z: 4.53942823, w: -1.07469034}
        outSlope: {x: 0, y: 0, z: 4.53942823, w: -1.07469034}
        tangentMode: 0
      - time: .0833333284
        value: {x: 0, y: 0, z: .415126622, w: .909763634}
        inSlope: {x: 0, y: 0, z: 2.72568893, w: -1.07611513}
        outSlope: {x: 0, y: 0, z: 2.72568893, w: -1.07611513}
        tangentMode: 0
      - time: .125
        value: {x: 0, y: 0, z: .478044003, w: .878335893}
        inSlope: {x: 0, y: 0, z: .731436849, w: -.364337623}
        outSlope: {x: 0, y: 0, z: .731436849, w: -.364337623}
        tangentMode: 1048576000
      - time: .166666672
        value: {x: 0, y: 0, z: .476079702, w: .879402161}
        inSlope: {x: 0, y: 0, z: .375194997, w: -.213034689}
        outSlope: {x: 0, y: 0, z: .375194997, w: -.213034689}
        tangentMode: 1065353216
      - time: .208333328
        value: {x: 0, y: 0, z: .509310246, w: .860583007}
        inSlope: {x: 0, y: 0, z: 1.62705183, w: -1.05944502}
        outSlope: {x: 0, y: 0, z: 1.62705183, w: -1.05944502}
        tangentMode: 0
      - time: .25000003
        value: {x: 0, y: 0, z: .611667395, w: .791115046}
        inSlope: {x: 0, y: 0, z: 2.55862546, w: -2.03090906}
        outSlope: {x: 0, y: 0, z: 2.55862546, w: -2.03090906}
        tangentMode: 0
      - time: .291666687
        value: {x: 0, y: 0, z: .722529054, w: .691340566}
        inSlope: {x: 0, y: 0, z: 2.12366486, w: -2.11510825}
        outSlope: {x: 0, y: 0, z: 2.12366486, w: -2.11510825}
        tangentMode: 1065353216
      - time: .333333343
        value: {x: 0, y: 0, z: .788639426, w: .614856064}
        inSlope: {x: 0, y: 0, z: 1.16491985, w: -1.42095065}
        outSlope: {x: 0, y: 0, z: 1.16491985, w: -1.42095065}
        tangentMode: 0
      - time: .416666687
        value: {x: 0, y: 0, z: .828864992, w: .559448659}
        inSlope: {x: 0, y: 0, z: .122959644, w: -.179339692}
        outSlope: {x: 0, y: 0, z: .122959644, w: -.179339692}
        tangentMode: 0
      - time: .583333313
        value: {x: 0, y: 0, z: .829852343, w: .557983041}
        inSlope: {x: 0, y: 0, z: 0, w: 0}
        outSlope: {x: 0, y: 0, z: 0, w: 0}
        tangentMode: 1062557014
      - time: .958333313
        value: {x: 0, y: 0, z: .829852343, w: .557983041}
        inSlope: {x: 0, y: 0, z: 0, w: 0}
        outSlope: {x: 0, y: 0, z: 0, w: 0}
        tangentMode: 606076939
      m_PreInfinity: 2
      m_PostInfinity: 2
    path: root_jnt/l_upperleg_jnt/l_lowerleg_jnt
  - curve:
      serializedVersion: 2
      m_Curve:
      - time: 0
        value: {x: .756972373, y: -.633853316, z: -.13609603, w: .0818580091}
        inSlope: {x: -1.29146719, y: -1.40686655, z: -.206385612, w: -.24913466}
        outSlope: {x: -1.29146719, y: -1.40686655, z: -.206385612, w: -.24913466}
        tangentMode: 1065353216
      - time: .0416666679
        value: {x: .70316124, y: -.692472756, z: -.144695431, w: .0714773983}
        inSlope: {x: -1.18836737, y: -1.20669007, z: -.214067459, w: -.217915982}
        outSlope: {x: -1.18836737, y: -1.20669007, z: -.214067459, w: -.217915982}
        tangentMode: 0
      - time: .125
        value: {x: .639675677, y: -.749686956, z: -.158424228, w: .0607147999}
        inSlope: {x: -.00722551346, y: -.00273227692, z: -.0243226252, w: -.0162558388}
        outSlope: {x: -.00722551346, y: -.00273227692, z: -.0243226252, w: -.0162558388}
        tangentMode: 1048576000
      - time: .208333328
        value: {x: .692395926, y: -.702106357, z: -.152894214, w: .0652536899}
        inSlope: {x: .860662103, y: .859860301, z: .00683196634, w: .0811298788}
        outSlope: {x: .860662103, y: .859860301, z: .00683196634, w: .0811298788}
        tangentMode: 0
      - time: .291666687
        value: {x: .779455483, y: -.599448979, z: -.163756937, w: .0793333501}
        inSlope: {x: 1.35561371, y: 1.94585872, z: -.225108385, w: .360420316}
        outSlope: {x: 1.35561371, y: 1.94585872, z: -.225108385, w: .360420316}
        tangentMode: 1065353216
      - time: .333333343
        value: {x: .842029274, y: -.500828624, z: -.17415157, w: .0991395339}
        inSlope: {x: 1.37022102, y: 2.53693008, z: -.276719868, w: .562683702}
        outSlope: {x: 1.37022102, y: 2.53693008, z: -.276719868, w: .562683702}
        tangentMode: 0
      - time: .37500003
        value: {x: .893640578, y: -.388038099, z: -.186816931, w: .126223668}
        inSlope: {x: .94850111, y: 2.44675636, z: -.312262923, w: .645579457}
        outSlope: {x: .94850111, y: 2.44675636, z: -.312262923, w: .645579457}
        tangentMode: 0
      - time: .416666687
        value: {x: .921071053, y: -.29693222, z: -.200173482, w: .152937829}
        inSlope: {x: .416376948, y: 1.52628601, z: -.241228461, w: .46914351}
        outSlope: {x: .416376948, y: 1.52628601, z: -.241228461, w: .46914351}
        tangentMode: 0
      - time: .5
        value: {x: .928338647, y: -.260847628, z: -.206919298, w: .165318951}
        inSlope: {x: 0, y: 0, z: 0, w: 0}
        outSlope: {x: 0, y: 0, z: 0, w: 0}
        tangentMode: 0
      - time: .958333313
        value: {x: .928338647, y: -.260847628, z: -.206919298, w: .165318951}
        inSlope: {x: 0, y: 0, z: 0, w: 0}
        outSlope: {x: 0, y: 0, z: 0, w: 0}
        tangentMode: 606076939
      m_PreInfinity: 2
      m_PostInfinity: 2
    path: root_jnt/l_upperleg_jnt/l_lowerleg_jnt/l_feet_jnt
  - curve:
      serializedVersion: 2
      m_Curve:
      - time: 0
        value: {x: .00136874686, y: .00425097765, z: .0634305403, w: .997976303}
        inSlope: {x: 0, y: 0, z: 0, w: 0}
        outSlope: {x: 0, y: 0, z: 0, w: 0}
        tangentMode: -1534658229
      - time: .958333313
        value: {x: .00136874686, y: .00425097765, z: .0634305403, w: .997976303}
        inSlope: {x: 0, y: 0, z: 0, w: 0}
        outSlope: {x: 0, y: 0, z: 0, w: 0}
        tangentMode: 0
      m_PreInfinity: 2
      m_PostInfinity: 2
    path: root_jnt/l_upperleg_jnt/l_lowerleg_jnt/l_feet_jnt/l_feetball_jnt
  - curve:
      serializedVersion: 2
      m_Curve:
      - time: 0
        value: {x: .0157985464, y: .999875188, z: -6.02573151e-17, w: -6.21920773e-17}
        inSlope: {x: 0, y: 0, z: 0, w: 0}
        outSlope: {x: 0, y: 0, z: 0, w: 0}
        tangentMode: 1065353216
      - time: .958333313
        value: {x: .0157985464, y: .999875188, z: -6.02573151e-17, w: -6.21920773e-17}
        inSlope: {x: 0, y: 0, z: 0, w: 0}
        outSlope: {x: 0, y: 0, z: 0, w: 0}
        tangentMode: 0
      m_PreInfinity: 2
      m_PostInfinity: 2
    path: root_jnt/l_upperleg_jnt/l_lowerleg_jnt/l_feet_jnt/l_feetball_jnt/l_feetballtip_jnt
  - curve:
      serializedVersion: 2
      m_Curve:
      - time: 0
        value: {x: -.724731088, y: -.0712602511, z: .035635367, w: .684409916}
        inSlope: {x: .391960144, y: -2.38665962, z: -2.19071627, w: -.0435919762}
        outSlope: {x: .391960144, y: -2.38665962, z: -2.19071627, w: -.0435919762}
        tangentMode: -1633681413
      - time: .0416666679
        value: {x: -.708399415, y: -.170704409, z: -.0556444786, w: .682593584}
        inSlope: {x: .481882125, y: -2.17248821, z: -1.95863914, w: -.150343195}
        outSlope: {x: .481882125, y: -2.17248821, z: -1.95863914, w: -.150343195}
        tangentMode: 1062557013
      - time: .0833333284
        value: {x: -.684574246, y: -.252300948, z: -.127584562, w: .671881318}
        inSlope: {x: .437996149, y: -1.38004327, z: -1.20585608, w: -.208242416}
        outSlope: {x: .437996149, y: -1.38004327, z: -1.20585608, w: -.208242416}
        tangentMode: 461614515
      - time: .125
        value: {x: -.671899736, y: -.28570801, z: -.156132489, w: .665240049}
        inSlope: {x: -.244088128, y: .798757136, z: .857877016, w: .124290682}
        outSlope: {x: -.244088128, y: .798757136, z: .857877016, w: .124290682}
        tangentMode: 59319439
      - time: .166666672
        value: {x: -.704914927, y: -.185737848, z: -.0560948029, w: .682238877}
        inSlope: {x: -.590209007, y: 4.52573252, z: 4.36790705, w: -.127948642}
        outSlope: {x: -.590209007, y: 4.52573252, z: 4.36790705, w: -.127948642}
        tangentMode: 69206011
      - time: .208333328
        value: {x: -.72108382, y: .0914363116, z: .20785971, w: .654577672}
        inSlope: {x: -.0581689924, y: 4.03371763, z: 3.85296869, w: -.565230131}
        outSlope: {x: -.0581689924, y: 4.03371763, z: 3.85296869, w: -.565230131}
        tangentMode: -1534658229
      - time: .25000003
        value: {x: -.709762335, y: .150405258, z: .264985889, w: .635136366}
        inSlope: {x: .197000697, y: .936154664, z: .972602189, w: -.348815858}
        outSlope: {x: .197000697, y: .936154664, z: .972602189, w: -.348815858}
        tangentMode: 0
      - time: .333333343
        value: {x: -.705082834, y: .165049613, z: .290486515, w: .625487328}
        inSlope: {x: -.064838618, y: -.3090204, z: -.243971467, w: .111913867}
        outSlope: {x: -.064838618, y: -.3090204, z: -.243971467, w: .111913867}
        tangentMode: 1065353216
      - time: .416666687
        value: {x: -.713062048, y: .130447179, z: .252792835, w: .640797794}
        inSlope: {x: -.0359008387, y: -.159004077, z: -.189433381, w: .07154347}
        outSlope: {x: -.0359008387, y: -.159004077, z: -.189433381, w: .07154347}
        tangentMode: 0
      - time: .5
        value: {x: -.713062048, y: .130447179, z: .252792835, w: .640797794}
        inSlope: {x: 0, y: 0, z: 0, w: 0}
        outSlope: {x: 0, y: 0, z: 0, w: 0}
        tangentMode: 1065353216
      - time: .958333313
        value: {x: -.713062048, y: .130447179, z: .252792835, w: .640797794}
        inSlope: {x: 0, y: 0, z: 0, w: 0}
        outSlope: {x: 0, y: 0, z: 0, w: 0}
        tangentMode: 1065353216
      m_PreInfinity: 2
      m_PostInfinity: 2
    path: root_jnt/r_upperleg_jnt
  - curve:
      serializedVersion: 2
      m_Curve:
      - time: 0
        value: {x: 1.28960238e-08, y: 4.75424256e-10, z: .0368409306, w: .999321163}
        inSlope: {x: -3.8477701e-08, y: 6.31427355e-08, z: 5.13749743, w: -.751416206}
        outSlope: {x: -3.8477701e-08, y: 6.31427355e-08, z: 5.13749743, w: -.751416206}
        tangentMode: 0
      - time: .0416666679
        value: {x: 1.12927863e-08, y: 3.1063716e-09, z: .250903338, w: .968012154}
        inSlope: {x: -5.98188592e-08, y: 5.07941138e-08, z: 4.539433, w: -1.07469177}
        outSlope: {x: -5.98188592e-08, y: 5.07941138e-08, z: 4.539433, w: -1.07469177}
        tangentMode: 0
      - time: .125
        value: {x: 6.06320238e-09, y: 5.1460014e-09, z: .47804442, w: .878335655}
        inSlope: {x: 8.92441143e-09, y: -2.8821634e-09, z: -.347885013, w: .152137756}
        outSlope: {x: 8.92441143e-09, y: -2.8821634e-09, z: -.347885013, w: .152137756}
        tangentMode: 0
      - time: .166666672
        value: {x: 8.65481997e-09, y: 4.46808679e-09, z: .386136591, w: .922441661}
        inSlope: {x: 8.16790049e-08, y: -6.17596783e-08, z: -5.73633766, w: 1.45997238}
        outSlope: {x: 8.16790049e-08, y: -6.17596783e-08, z: -5.73633766, w: 1.45997238}
        tangentMode: 1061857963
      - time: .208333328
        value: {x: 1.28697852e-08, y: -6.37881404e-13, z: 1.63467485e-05, w: 1}
        inSlope: {x: 5.05795938e-08, y: -5.36247065e-08, z: -4.63344383, w: .930700302}
        outSlope: {x: 5.05795938e-08, y: -5.36247065e-08, z: -4.63344383, w: .930700302}
        tangentMode: 1065353216
      - time: .25000003
        value: {x: 1.28697852e-08, y: -6.37881404e-13, z: 1.63467485e-05, w: 1}
        inSlope: {x: 0, y: 0, z: 0, w: 0}
        outSlope: {x: 0, y: 0, z: 0, w: 0}
        tangentMode: 0
      - time: .958333313
        value: {x: 1.28697852e-08, y: -6.37881404e-13, z: 1.63467485e-05, w: 1}
        inSlope: {x: 0, y: 0, z: 0, w: 0}
        outSlope: {x: 0, y: 0, z: 0, w: 0}
        tangentMode: 0
      m_PreInfinity: 2
      m_PostInfinity: 2
    path: root_jnt/r_upperleg_jnt/r_lowerleg_jnt
  - curve:
      serializedVersion: 2
      m_Curve:
      - time: 0
        value: {x: .745852411, y: -.647367775, z: -.131670684, w: .0853348449}
        inSlope: {x: -1.31666565, y: -1.38444471, z: -.213194132, w: -.239908576}
        outSlope: {x: -1.31666565, y: -1.38444471, z: -.213194132, w: -.239908576}
        tangentMode: 0
      - time: .0416666679
        value: {x: .690991342, y: -.705052972, z: -.140553772, w: .0753386542}
        inSlope: {x: -1.21006036, y: -1.18619084, z: -.220268548, w: -.20931977}
        outSlope: {x: -1.21006036, y: -1.18619084, z: -.220268548, w: -.20931977}
        tangentMode: 0
      - time: .0833333284
        value: {x: .645014048, y: -.746217012, z: -.150026396, w: .0678915307}
        inSlope: {x: -.774265766, y: -.673570633, z: -.168670714, w: -.123480231}
        outSlope: {x: -.774265766, y: -.673570633, z: -.168670714, w: -.123480231}
        tangentMode: 0
      - time: .125
        value: {x: .626469195, y: -.761183858, z: -.154609665, w: .065048635}
        inSlope: {x: -.639855504, y: -.503837526, z: -.0969258994, w: -.0908740312}
        outSlope: {x: -.639855504, y: -.503837526, z: -.0969258994, w: -.0908740312}
        tangentMode: 0
      - time: .166666672
        value: {x: .591692746, y: -.788203478, z: -.158103555, w: .0603186935}
        inSlope: {x: .562167704, y: .461697787, z: .172779724, w: .0401110351}
        outSlope: {x: .562167704, y: .461697787, z: .172779724, w: .0401110351}
        tangentMode: 0
      - time: .208333328
        value: {x: .673316479, y: -.72270906, z: -.140211359, w: .0683912188}
        inSlope: {x: 2.09067154, y: 1.92549658, z: .472053885, w: .141844511}
        outSlope: {x: 2.09067154, y: 1.92549658, z: .472053885, w: .141844511}
        tangentMode: 24
      - time: .25000003
        value: {x: .765915394, y: -.62774539, z: -.118765727, w: .0721390694}
        inSlope: {x: 1.5415231, y: 1.70449114, z: .202911392, w: .00854960084}
        outSlope: {x: 1.5415231, y: 1.70449114, z: .202911392, w: .00854960084}
        tangentMode: 0
      - time: .291666687
        value: {x: .801776767, y: -.580668092, z: -.123302065, w: .069103688}
        inSlope: {x: .891441345, y: 1.26245594, z: -.166947708, w: -.165125668}
        outSlope: {x: .891441345, y: 1.26245594, z: -.166947708, w: -.165125668}
        tangentMode: 0
      - time: .333333343
        value: {x: .840202153, y: -.522540748, z: -.132678032, w: .0583785996}
        inSlope: {x: 1.18401551, y: 2.03513575, z: -.0713529736, w: -.118011199}
        outSlope: {x: 1.18401551, y: 2.03513575, z: -.0713529736, w: -.118011199}
        tangentMode: 57
      - time: .37500003
        value: {x: .900444746, y: -.411073416, z: -.129248142, w: .0592694245}
        inSlope: {x: 1.0895617, y: 2.22663045, z: .120144635, w: .11624901}
        outSlope: {x: 1.0895617, y: 2.22663045, z: .120144635, w: .11624901}
        tangentMode: 0
      - time: .416666687
        value: {x: .930998981, y: -.336988181, z: -.122665979, w: .0680660158}
        inSlope: {x: .366650909, y: .889023066, z: .0789859816, w: .105559118}
        outSlope: {x: .366650909, y: .889023066, z: .0789859816, w: .105559118}
        tangentMode: 0
      - time: .458333343
        value: {x: .930998981, y: -.336988181, z: -.122665979, w: .0680660158}
        inSlope: {x: 0, y: 0, z: 0, w: 0}
        outSlope: {x: 0, y: 0, z: 0, w: 0}
        tangentMode: 0
      - time: .958333313
        value: {x: .930998981, y: -.336988181, z: -.122665979, w: .0680660158}
        inSlope: {x: 0, y: 0, z: 0, w: 0}
        outSlope: {x: 0, y: 0, z: 0, w: 0}
        tangentMode: 2139095040
      m_PreInfinity: 2
      m_PostInfinity: 2
    path: root_jnt/r_upperleg_jnt/r_lowerleg_jnt/r_feet_jnt
  - curve:
      serializedVersion: 2
      m_Curve:
      - time: 0
        value: {x: -.000633745745, y: -.0018741145, z: .0454295538, w: .998965621}
        inSlope: {x: 7.68341124e-08, y: 2.29105353e-07, z: 8.94069672e-08, w: 0}
        outSlope: {x: 7.68341124e-08, y: 2.29105353e-07, z: 8.94069672e-08, w: 0}
        tangentMode: 0
      - time: .125
        value: {x: -.000633745978, y: -.00187411509, z: .0454295576, w: .998965621}
        inSlope: {x: -.000589970674, y: .000112007358, z: 1.61379558e-05, w: -1.43051136e-06}
        outSlope: {x: -.000589970674, y: .000112007358, z: 1.61379558e-05, w: -1.43051136e-06}
        tangentMode: 0
      - time: .166666672
        value: {x: -.000682912825, y: -.0018647894, z: .0454309806, w: .998965502}
        inSlope: {x: -.111921273, y: -.35220927, z: 1.14718783, w: -.114033252}
        outSlope: {x: -.111921273, y: -.35220927, z: 1.14718783, w: -.114033252}
        tangentMode: 1065353216
      - time: .208333328
        value: {x: -.00996051636, y: -.0312248804, z: .141028523, w: .989462852}
        inSlope: {x: -.172795385, y: -1.15270114, z: 3.81799674, w: -.872316957}
        outSlope: {x: -.172795385, y: -1.15270114, z: 3.81799674, w: -.872316957}
        tangentMode: 0
      - time: .25000003
        value: {x: -.0150825279, y: -.0979232341, z: .363597453, w: .926272392}
        inSlope: {x: .148220628, y: -.746352613, z: 2.51908159, w: -.692931533}
        outSlope: {x: .148220628, y: -.746352613, z: 2.51908159, w: -.692931533}
        tangentMode: 0
      - time: .291666687
        value: {x: .00239119679, y: -.09342096, z: .350952089, w: .931718528}
        inSlope: {x: .38955918, y: .49359411, z: -1.71617174, w: .567431808}
        outSlope: {x: .38955918, y: .49359411, z: -1.71617174, w: .567431808}
        tangentMode: 1049974102
      - time: .333333343
        value: {x: .0173807312, y: -.0567904003, z: .220583171, w: .973558366}
        inSlope: {x: .25185439, y: .689922214, z: -2.58322954, w: .697273493}
        outSlope: {x: .25185439, y: .689922214, z: -2.58322954, w: .697273493}
        tangentMode: 1065353216
      - time: .37500003
        value: {x: .0233790632, y: -.035927441, z: .135682955, w: .989824653}
        inSlope: {x: .122684911, y: .302557886, z: -1.30254507, w: .231120497}
        outSlope: {x: .122684911, y: .302557886, z: -1.30254507, w: .231120497}
        tangentMode: 0
      - time: .458333343
        value: {x: .0276044756, y: -.0315772332, z: .112037703, w: .992818415}
        inSlope: {x: 0, y: 0, z: 0, w: 0}
        outSlope: {x: 0, y: 0, z: 0, w: 0}
        tangentMode: 1065353216
      - time: .958333313
        value: {x: .0276044756, y: -.0315772332, z: .112037703, w: .992818415}
        inSlope: {x: 0, y: 0, z: 0, w: 0}
        outSlope: {x: 0, y: 0, z: 0, w: 0}
        tangentMode: 0
      m_PreInfinity: 2
      m_PostInfinity: 2
    path: root_jnt/r_upperleg_jnt/r_lowerleg_jnt/r_feet_jnt/r_feetbalr_jnt
  - curve:
      serializedVersion: 2
      m_Curve:
      - time: 0
        value: {x: -.0696766302, y: -.703665555, z: -.0696766302, w: .703665555}
        inSlope: {x: 0, y: 0, z: 0, w: 0}
        outSlope: {x: 0, y: 0, z: 0, w: 0}
        tangentMode: 1065353216
      - time: .958333313
        value: {x: -.0696766302, y: -.703665555, z: -.0696766302, w: .703665555}
        inSlope: {x: 0, y: 0, z: 0, w: 0}
        outSlope: {x: 0, y: 0, z: 0, w: 0}
        tangentMode: 0
      m_PreInfinity: 2
      m_PostInfinity: 2
    path: root_jnt/r_upperleg_jnt/r_lowerleg_jnt/r_feet_jnt/r_feetbalr_jnt/r_feetballtip_jnt
  m_CompressedRotationCurves: []
  m_PositionCurves:
  - curve:
      serializedVersion: 2
      m_Curve:
      - time: 0
        value: {x: .00463445904, y: .864346981, z: 0}
        inSlope: {x: 3.46944695e-17, y: -6.36523919e-06, z: -0}
        outSlope: {x: 3.46944695e-17, y: -6.36523919e-06, z: -0}
        tangentMode: 26
      - time: .125
        value: {x: .00463445904, y: .787373662, z: 0}
        inSlope: {x: 1.48690579e-17, y: 3.60747003e-06, z: -0}
        outSlope: {x: 3.46944794e-17, y: 2.2780639e-06, z: -0}
        tangentMode: 107725504
      - time: .249999985
        value: {x: .00463445904, y: .864346981, z: 0}
        inSlope: {x: 1.48690629e-17, y: -1.8091132e-06, z: -0}
        outSlope: {x: 3.4694453e-17, y: 1.77635599e-14, z: -0}
        tangentMode: 80
      - time: .958333313
        value: {x: .00463445904, y: .864346981, z: 0}
        inSlope: {x: 1.48690529e-17, y: 7.6129551e-15, z: -0}
        outSlope: {x: 1.48690529e-17, y: 7.6129551e-15, z: -0}
        tangentMode: 24
      m_PreInfinity: 2
      m_PostInfinity: 2
    path: root_jnt
  - curve:
      serializedVersion: 2
      m_Curve:
      - time: 0
        value: {x: -.0569939278, y: .00094790908, z: 0}
        inSlope: {x: 0, y: 0, z: 0}
        outSlope: {x: 0, y: 0, z: 0}
        tangentMode: 0
      - time: .958333313
        value: {x: -.0569939278, y: .00094790908, z: 0}
        inSlope: {x: 0, y: 0, z: 0}
        outSlope: {x: 0, y: 0, z: 0}
        tangentMode: 0
      m_PreInfinity: 2
      m_PostInfinity: 2
    path: root_jnt/back_jnt
  - curve:
      serializedVersion: 2
      m_Curve:
      - time: 0
        value: {x: -.278689772, y: -4.78783686e-17, z: .0282955896}
        inSlope: {x: 0, y: 0, z: 0}
        outSlope: {x: 0, y: 0, z: 0}
        tangentMode: 0
      - time: .958333313
        value: {x: -.278689772, y: -4.78783686e-17, z: .0282955896}
        inSlope: {x: 0, y: 0, z: 0}
        outSlope: {x: 0, y: 0, z: 0}
        tangentMode: 0
      m_PreInfinity: 2
      m_PostInfinity: 2
    path: root_jnt/back_jnt/chest_jnt
  - curve:
      serializedVersion: 2
      m_Curve:
      - time: 0
        value: {x: -.31119585, y: -1.73181961e-16, z: .00806627329}
        inSlope: {x: 0, y: 0, z: 0}
        outSlope: {x: 0, y: 0, z: 0}
        tangentMode: 0
      - time: .958333313
        value: {x: -.31119585, y: -1.73181961e-16, z: .00806627329}
        inSlope: {x: 0, y: 0, z: 0}
        outSlope: {x: 0, y: 0, z: 0}
        tangentMode: 0
      m_PreInfinity: 2
      m_PostInfinity: 2
    path: root_jnt/back_jnt/chest_jnt/head_jnt
  - curve:
      serializedVersion: 2
      m_Curve:
      - time: 0
        value: {x: -.488804162, y: -4.18011818e-16, z: 0}
        inSlope: {x: 0, y: 0, z: 0}
        outSlope: {x: 0, y: 0, z: 0}
        tangentMode: 0
      - time: .958333313
        value: {x: -.488804162, y: -4.18011818e-16, z: 0}
        inSlope: {x: 0, y: 0, z: 0}
        outSlope: {x: 0, y: 0, z: 0}
        tangentMode: 0
      m_PreInfinity: 2
      m_PostInfinity: 2
    path: root_jnt/back_jnt/chest_jnt/head_jnt/headtip_jnt
  - curve:
      serializedVersion: 2
      m_Curve:
      - time: 0
        value: {x: -.137309298, y: -.242578939, z: -.0282955896}
        inSlope: {x: 0, y: 0, z: 0}
        outSlope: {x: 0, y: 0, z: 0}
        tangentMode: 0
      - time: .958333313
        value: {x: -.137309298, y: -.242578939, z: -.0282955896}
        inSlope: {x: 0, y: 0, z: 0}
        outSlope: {x: 0, y: 0, z: 0}
        tangentMode: 0
      m_PreInfinity: 2
      m_PostInfinity: 2
    path: root_jnt/back_jnt/chest_jnt/l_upperarm_jnt
  - curve:
      serializedVersion: 2
      m_Curve:
      - time: 0
        value: {x: -.284047723, y: -8.88178433e-17, z: 0}
        inSlope: {x: 0, y: 0, z: 0}
        outSlope: {x: 0, y: 0, z: 0}
        tangentMode: 0
      - time: .958333313
        value: {x: -.284047723, y: -8.88178433e-17, z: 0}
        inSlope: {x: 0, y: 0, z: 0}
        outSlope: {x: 0, y: 0, z: 0}
        tangentMode: 0
      m_PreInfinity: 2
      m_PostInfinity: 2
    path: root_jnt/back_jnt/chest_jnt/l_upperarm_jnt/l_lowerarm_jnt
  - curve:
      serializedVersion: 2
      m_Curve:
      - time: 0
        value: {x: -.185247108, y: .00571911596, z: 0}
        inSlope: {x: 0, y: 0, z: 0}
        outSlope: {x: 0, y: 0, z: 0}
        tangentMode: 0
      - time: .958333313
        value: {x: -.185247108, y: .00571911596, z: 0}
        inSlope: {x: 0, y: 0, z: 0}
        outSlope: {x: 0, y: 0, z: 0}
        tangentMode: 0
      m_PreInfinity: 2
      m_PostInfinity: 2
    path: root_jnt/back_jnt/chest_jnt/l_upperarm_jnt/l_lowerarm_jnt/l_hand_jnt
  - curve:
      serializedVersion: 2
      m_Curve:
      - time: 0
        value: {x: -.177316114, y: .01847234, z: -.0962429047}
        inSlope: {x: 0, y: 0, z: 0}
        outSlope: {x: 0, y: 0, z: 0}
        tangentMode: 0
      - time: .958333313
        value: {x: -.177316114, y: .01847234, z: -.0962429047}
        inSlope: {x: 0, y: 0, z: 0}
        outSlope: {x: 0, y: 0, z: 0}
        tangentMode: 0
      m_PreInfinity: 2
      m_PostInfinity: 2
    path: root_jnt/back_jnt/chest_jnt/l_upperarm_jnt/l_lowerarm_jnt/l_hand_jnt/l_fingerB1_jnt
  - curve:
      serializedVersion: 2
      m_Curve:
      - time: 0
        value: {x: -.207969353, y: 0, z: 4.44089216e-17}
        inSlope: {x: 0, y: 0, z: 0}
        outSlope: {x: 0, y: 0, z: 0}
        tangentMode: 0
      - time: .958333313
        value: {x: -.207969353, y: 0, z: 4.44089216e-17}
        inSlope: {x: 0, y: 0, z: 0}
        outSlope: {x: 0, y: 0, z: 0}
        tangentMode: 0
      m_PreInfinity: 2
      m_PostInfinity: 2
    path: root_jnt/back_jnt/chest_jnt/l_upperarm_jnt/l_lowerarm_jnt/l_hand_jnt/l_fingerB1_jnt/l_fingerB2_jnt
  - curve:
      serializedVersion: 2
      m_Curve:
      - time: 0
        value: {x: -.191971973, y: -3.55271373e-16, z: 4.44089216e-17}
        inSlope: {x: 0, y: 0, z: 0}
        outSlope: {x: 0, y: 0, z: 0}
        tangentMode: 0
      - time: .958333313
        value: {x: -.191971973, y: -3.55271373e-16, z: 4.44089216e-17}
        inSlope: {x: 0, y: 0, z: 0}
        outSlope: {x: 0, y: 0, z: 0}
        tangentMode: 606076939
      m_PreInfinity: 2
      m_PostInfinity: 2
    path: root_jnt/back_jnt/chest_jnt/l_upperarm_jnt/l_lowerarm_jnt/l_hand_jnt/l_fingerB1_jnt/l_fingerB2_jnt/l_fingerB2tip_jnt
  - curve:
      serializedVersion: 2
      m_Curve:
      - time: 0
        value: {x: -.177316114, y: .01847234, z: .0335294679}
        inSlope: {x: 0, y: 0, z: 0}
        outSlope: {x: 0, y: 0, z: 0}
        tangentMode: 0
      - time: .958333313
        value: {x: -.177316114, y: .01847234, z: .0335294679}
        inSlope: {x: 0, y: 0, z: 0}
        outSlope: {x: 0, y: 0, z: 0}
        tangentMode: 606076939
      m_PreInfinity: 2
      m_PostInfinity: 2
    path: root_jnt/back_jnt/chest_jnt/l_upperarm_jnt/l_lowerarm_jnt/l_hand_jnt/l_fingerA1_jnt
  - curve:
      serializedVersion: 2
      m_Curve:
      - time: 0
        value: {x: -.207969353, y: 8.88178433e-17, z: 4.44089216e-17}
        inSlope: {x: 0, y: 0, z: 0}
        outSlope: {x: 0, y: 0, z: 0}
        tangentMode: 0
      - time: .958333313
        value: {x: -.207969353, y: 8.88178433e-17, z: 4.44089216e-17}
        inSlope: {x: 0, y: 0, z: 0}
        outSlope: {x: 0, y: 0, z: 0}
        tangentMode: 606076939
      m_PreInfinity: 2
      m_PostInfinity: 2
    path: root_jnt/back_jnt/chest_jnt/l_upperarm_jnt/l_lowerarm_jnt/l_hand_jnt/l_fingerA1_jnt/l_fingerA2_jnt
  - curve:
      serializedVersion: 2
      m_Curve:
      - time: 0
        value: {x: -.191971973, y: -2.66453536e-16, z: 0}
        inSlope: {x: 0, y: 0, z: 0}
        outSlope: {x: 0, y: 0, z: 0}
        tangentMode: 0
      - time: .958333313
        value: {x: -.191971973, y: -2.66453536e-16, z: 0}
        inSlope: {x: 0, y: 0, z: 0}
        outSlope: {x: 0, y: 0, z: 0}
        tangentMode: 606076939
      m_PreInfinity: 2
      m_PostInfinity: 2
    path: root_jnt/back_jnt/chest_jnt/l_upperarm_jnt/l_lowerarm_jnt/l_hand_jnt/l_fingerA1_jnt/l_fingerA2_jnt/l_fingerA2tip_jnt
  - curve:
      serializedVersion: 2
      m_Curve:
      - time: 0
        value: {x: -.0643608198, y: -.00139074121, z: .0883604512}
        inSlope: {x: 0, y: 0, z: 0}
        outSlope: {x: 0, y: 0, z: 0}
        tangentMode: 0
      - time: .958333313
        value: {x: -.0643608198, y: -.00139074121, z: .0883604512}
        inSlope: {x: 0, y: 0, z: 0}
        outSlope: {x: 0, y: 0, z: 0}
        tangentMode: 606076939
      m_PreInfinity: 2
      m_PostInfinity: 2
    path: root_jnt/back_jnt/chest_jnt/l_upperarm_jnt/l_lowerarm_jnt/l_hand_jnt/l_thumb1_jnt
  - curve:
      serializedVersion: 2
      m_Curve:
      - time: 0
        value: {x: -.129532725, y: .0260634255, z: -.0443777665}
        inSlope: {x: 0, y: 0, z: 0}
        outSlope: {x: 0, y: 0, z: 0}
        tangentMode: 0
      - time: .958333313
        value: {x: -.129532725, y: .0260634255, z: -.0443777665}
        inSlope: {x: 0, y: 0, z: 0}
        outSlope: {x: 0, y: 0, z: 0}
        tangentMode: 606076939
      m_PreInfinity: 2
      m_PostInfinity: 2
    path: root_jnt/back_jnt/chest_jnt/l_upperarm_jnt/l_lowerarm_jnt/l_hand_jnt/l_thumb1_jnt/l_thumb2_jnt
  - curve:
      serializedVersion: 2
      m_Curve:
      - time: 0
        value: {x: -.156485319, y: -8.88178433e-17, z: -6.21724883e-16}
        inSlope: {x: 0, y: 0, z: 0}
        outSlope: {x: 0, y: 0, z: 0}
        tangentMode: 0
      - time: .958333313
        value: {x: -.156485319, y: -8.88178433e-17, z: -6.21724883e-16}
        inSlope: {x: 0, y: 0, z: 0}
        outSlope: {x: 0, y: 0, z: 0}
        tangentMode: 606076939
      m_PreInfinity: 2
      m_PostInfinity: 2
    path: root_jnt/back_jnt/chest_jnt/l_upperarm_jnt/l_lowerarm_jnt/l_hand_jnt/l_thumb1_jnt/l_thumb2_jnt/l_thumb2tip_jnt
  - curve:
      serializedVersion: 2
      m_Curve:
      - time: 0
        value: {x: -.137308002, y: .24257879, z: -.0282955896}
        inSlope: {x: 0, y: 0, z: 0}
        outSlope: {x: 0, y: 0, z: 0}
        tangentMode: 0
      - time: .958333313
        value: {x: -.137308002, y: .24257879, z: -.0282955896}
        inSlope: {x: 0, y: 0, z: 0}
        outSlope: {x: 0, y: 0, z: 0}
        tangentMode: 606076939
      m_PreInfinity: 2
      m_PostInfinity: 2
    path: root_jnt/back_jnt/chest_jnt/r_upperarm_jnt
  - curve:
      serializedVersion: 2
      m_Curve:
      - time: 0
        value: {x: .284047812, y: -1.77882976e-06, z: 2.17843825e-22}
        inSlope: {x: 0, y: 0, z: 0}
        outSlope: {x: 0, y: 0, z: 0}
        tangentMode: 0
      - time: .958333313
        value: {x: .284047812, y: -1.77882976e-06, z: 2.17843825e-22}
        inSlope: {x: 0, y: 0, z: 0}
        outSlope: {x: 0, y: 0, z: 0}
        tangentMode: 606076939
      m_PreInfinity: 2
      m_PostInfinity: 2
    path: root_jnt/back_jnt/chest_jnt/r_upperarm_jnt/r_lowerarm_jnt
  - curve:
      serializedVersion: 2
      m_Curve:
      - time: 0
        value: {x: .185246378, y: -.00571733667, z: -4.10539954e-18}
        inSlope: {x: 0, y: 0, z: 0}
        outSlope: {x: 0, y: 0, z: 0}
        tangentMode: 0
      - time: .958333313
        value: {x: .185246378, y: -.00571733667, z: -4.10539954e-18}
        inSlope: {x: 0, y: 0, z: 0}
        outSlope: {x: 0, y: 0, z: 0}
        tangentMode: 606076939
      m_PreInfinity: 2
      m_PostInfinity: 2
    path: root_jnt/back_jnt/chest_jnt/r_upperarm_jnt/r_lowerarm_jnt/r_hand_jnt
  - curve:
      serializedVersion: 2
      m_Curve:
      - time: 0
        value: {x: .177315429, y: -.0184739437, z: .0962428004}
        inSlope: {x: 0, y: 0, z: 0}
        outSlope: {x: 0, y: 0, z: 0}
        tangentMode: 0
      - time: .958333313
        value: {x: .177315429, y: -.0184739437, z: .0962428004}
        inSlope: {x: 0, y: 0, z: 0}
        outSlope: {x: 0, y: 0, z: 0}
        tangentMode: 606076939
      m_PreInfinity: 2
      m_PostInfinity: 2
    path: root_jnt/back_jnt/chest_jnt/r_upperarm_jnt/r_lowerarm_jnt/r_hand_jnt/r_fingerB1_jnt
  - curve:
      serializedVersion: 2
      m_Curve:
      - time: 0
        value: {x: .207969949, y: 2.41978228e-06, z: 1.01836044e-07}
        inSlope: {x: 0, y: 0, z: 0}
        outSlope: {x: 0, y: 0, z: 0}
        tangentMode: 0
      - time: .958333313
        value: {x: .207969949, y: 2.41978228e-06, z: 1.01836044e-07}
        inSlope: {x: 0, y: 0, z: 0}
        outSlope: {x: 0, y: 0, z: 0}
        tangentMode: 606076939
      m_PreInfinity: 2
      m_PostInfinity: 2
    path: root_jnt/back_jnt/chest_jnt/r_upperarm_jnt/r_lowerarm_jnt/r_hand_jnt/r_fingerB1_jnt/r_fingerB2_jnt
  - curve:
      serializedVersion: 2
      m_Curve:
      - time: 0
        value: {x: .191971168, y: 1.44229386e-06, z: 8.34908864e-10}
        inSlope: {x: 0, y: 0, z: 0}
        outSlope: {x: 0, y: 0, z: 0}
        tangentMode: 0
      - time: .958333313
        value: {x: .191971168, y: 1.44229386e-06, z: 8.34908864e-10}
        inSlope: {x: 0, y: 0, z: 0}
        outSlope: {x: 0, y: 0, z: 0}
        tangentMode: 606076939
      m_PreInfinity: 2
      m_PostInfinity: 2
    path: root_jnt/back_jnt/chest_jnt/r_upperarm_jnt/r_lowerarm_jnt/r_hand_jnt/r_fingerB1_jnt/r_fingerB2_jnt/r_fingerB2tip_jnt
  - curve:
      serializedVersion: 2
      m_Curve:
      - time: 0
        value: {x: .177315429, y: -.0184739437, z: -.0335294828}
        inSlope: {x: 0, y: 0, z: 0}
        outSlope: {x: 0, y: 0, z: 0}
        tangentMode: 0
      - time: .958333313
        value: {x: .177315429, y: -.0184739437, z: -.0335294828}
        inSlope: {x: 0, y: 0, z: 0}
        outSlope: {x: 0, y: 0, z: 0}
        tangentMode: 606076939
      m_PreInfinity: 2
      m_PostInfinity: 2
    path: root_jnt/back_jnt/chest_jnt/r_upperarm_jnt/r_lowerarm_jnt/r_hand_jnt/r_fingerA1_jnt
  - curve:
      serializedVersion: 2
      m_Curve:
      - time: 0
        value: {x: .207969144, y: 5.01365207e-07, z: -2.25917802e-07}
        inSlope: {x: 0, y: 0, z: 0}
        outSlope: {x: 0, y: 0, z: 0}
        tangentMode: 0
      - time: .958333313
        value: {x: .207969144, y: 5.01365207e-07, z: -2.25917802e-07}
        inSlope: {x: 0, y: 0, z: 0}
        outSlope: {x: 0, y: 0, z: 0}
        tangentMode: 606076939
      m_PreInfinity: 2
      m_PostInfinity: 2
    path: root_jnt/back_jnt/chest_jnt/r_upperarm_jnt/r_lowerarm_jnt/r_hand_jnt/r_fingerA1_jnt/r_fingerA2_jnt
  - curve:
      serializedVersion: 2
      m_Curve:
      - time: 0
        value: {x: .191971406, y: 7.83211931e-07, z: -1.80837262e-07}
        inSlope: {x: 0, y: 0, z: 0}
        outSlope: {x: 0, y: 0, z: 0}
        tangentMode: 0
      - time: .958333313
        value: {x: .191971406, y: 7.83211931e-07, z: -1.80837262e-07}
        inSlope: {x: 0, y: 0, z: 0}
        outSlope: {x: 0, y: 0, z: 0}
        tangentMode: 606076939
      m_PreInfinity: 2
      m_PostInfinity: 2
    path: root_jnt/back_jnt/chest_jnt/r_upperarm_jnt/r_lowerarm_jnt/r_hand_jnt/r_fingerA1_jnt/r_fingerA2_jnt/r_fingerA2tip_jnt
  - curve:
      serializedVersion: 2
      m_Curve:
      - time: 0
        value: {x: .0643620118, y: .00138938508, z: -.088360399}
        inSlope: {x: 0, y: 0, z: 0}
        outSlope: {x: 0, y: 0, z: 0}
        tangentMode: 0
      - time: .958333313
        value: {x: .0643620118, y: .00138938508, z: -.088360399}
        inSlope: {x: 0, y: 0, z: 0}
        outSlope: {x: 0, y: 0, z: 0}
        tangentMode: 606076939
      m_PreInfinity: 2
      m_PostInfinity: 2
    path: root_jnt/back_jnt/chest_jnt/r_upperarm_jnt/r_lowerarm_jnt/r_hand_jnt/r_thumb1_jnt
  - curve:
      serializedVersion: 2
      m_Curve:
      - time: 0
        value: {x: .129532829, y: -.0260634664, z: .0443771705}
        inSlope: {x: 0, y: 0, z: 0}
        outSlope: {x: 0, y: 0, z: 0}
        tangentMode: 0
      - time: .958333313
        value: {x: .129532829, y: -.0260634664, z: .0443771705}
        inSlope: {x: 0, y: 0, z: 0}
        outSlope: {x: 0, y: 0, z: 0}
        tangentMode: 606076939
      m_PreInfinity: 2
      m_PostInfinity: 2
    path: root_jnt/back_jnt/chest_jnt/r_upperarm_jnt/r_lowerarm_jnt/r_hand_jnt/r_thumb1_jnt/r_thumb2_jnt
  - curve:
      serializedVersion: 2
      m_Curve:
      - time: 0
        value: {x: .156485349, y: -2.0699224e-06, z: 2.37890646e-07}
        inSlope: {x: 0, y: 0, z: 0}
        outSlope: {x: 0, y: 0, z: 0}
        tangentMode: 0
      - time: .958333313
        value: {x: .156485349, y: -2.0699224e-06, z: 2.37890646e-07}
        inSlope: {x: 0, y: 0, z: 0}
        outSlope: {x: 0, y: 0, z: 0}
        tangentMode: 0
      m_PreInfinity: 2
      m_PostInfinity: 2
    path: root_jnt/back_jnt/chest_jnt/r_upperarm_jnt/r_lowerarm_jnt/r_hand_jnt/r_thumb1_jnt/r_thumb2_jnt/r_thumb2tip_jnt
  - curve:
      serializedVersion: 2
      m_Curve:
      - time: 0
        value: {x: .00470738998, y: -.181815848, z: 0}
        inSlope: {x: 0, y: 0, z: 0}
        outSlope: {x: 0, y: 0, z: 0}
        tangentMode: -1142277120
      - time: .958333313
        value: {x: .00470738998, y: -.181815848, z: 0}
        inSlope: {x: 0, y: 0, z: 0}
        outSlope: {x: 0, y: 0, z: 0}
        tangentMode: 0
      m_PreInfinity: 2
      m_PostInfinity: 2
    path: root_jnt/l_upperleg_jnt
  - curve:
      serializedVersion: 2
      m_Curve:
      - time: 0
        value: {x: -.251981705, y: -3.33066921e-17, z: 0}
        inSlope: {x: 0, y: 0, z: 0}
        outSlope: {x: 0, y: 0, z: 0}
        tangentMode: 0
      - time: .958333313
        value: {x: -.251981705, y: -3.33066921e-17, z: 0}
        inSlope: {x: 0, y: 0, z: 0}
        outSlope: {x: 0, y: 0, z: 0}
        tangentMode: 0
      m_PreInfinity: 2
      m_PostInfinity: 2
    path: root_jnt/l_upperleg_jnt/l_lowerleg_jnt
  - curve:
      serializedVersion: 2
      m_Curve:
      - time: 0
        value: {x: -.418173075, y: -1.77635687e-16, z: 0}
        inSlope: {x: 0, y: 0, z: 0}
        outSlope: {x: 0, y: 0, z: 0}
        tangentMode: -1078717388
      - time: .958333313
        value: {x: -.418173075, y: -1.77635687e-16, z: 0}
        inSlope: {x: 0, y: 0, z: 0}
        outSlope: {x: 0, y: 0, z: 0}
        tangentMode: 0
      m_PreInfinity: 2
      m_PostInfinity: 2
    path: root_jnt/l_upperleg_jnt/l_lowerleg_jnt/l_feet_jnt
  - curve:
      serializedVersion: 2
      m_Curve:
      - time: 0
        value: {x: -.238197312, y: -.00810608547, z: 2.26761609e-09}
        inSlope: {x: 0, y: 0, z: 0}
        outSlope: {x: 0, y: 0, z: 0}
        tangentMode: 0
      - time: .958333313
        value: {x: -.238197312, y: -.00810608547, z: 2.26761609e-09}
        inSlope: {x: 0, y: 0, z: 0}
        outSlope: {x: 0, y: 0, z: 0}
        tangentMode: 0
      m_PreInfinity: 2
      m_PostInfinity: 2
    path: root_jnt/l_upperleg_jnt/l_lowerleg_jnt/l_feet_jnt/l_feetball_jnt
  - curve:
      serializedVersion: 2
      m_Curve:
      - time: 0
        value: {x: -.249482557, y: .0163936485, z: -3.74728559e-09}
        inSlope: {x: 0, y: 0, z: 0}
        outSlope: {x: 0, y: 0, z: 0}
        tangentMode: 0
      - time: .958333313
        value: {x: -.249482557, y: .0163936485, z: -3.74728559e-09}
        inSlope: {x: 0, y: 0, z: 0}
        outSlope: {x: 0, y: 0, z: 0}
        tangentMode: 0
      m_PreInfinity: 2
      m_PostInfinity: 2
    path: root_jnt/l_upperleg_jnt/l_lowerleg_jnt/l_feet_jnt/l_feetball_jnt/l_feetballtip_jnt
  - curve:
      serializedVersion: 2
      m_Curve:
      - time: 0
        value: {x: .0107516833, y: .181558654, z: 0}
        inSlope: {x: 0, y: 0, z: 0}
        outSlope: {x: 0, y: 0, z: 0}
        tangentMode: 0
      - time: .958333313
        value: {x: .0107516833, y: .181558654, z: 0}
        inSlope: {x: 0, y: 0, z: 0}
        outSlope: {x: 0, y: 0, z: 0}
        tangentMode: 0
      m_PreInfinity: 2
      m_PostInfinity: 2
    path: root_jnt/r_upperleg_jnt
  - curve:
      serializedVersion: 2
      m_Curve:
      - time: 0
        value: {x: .251980036, y: -2.24550789e-07, z: 2.74995397e-23}
        inSlope: {x: 0, y: 0, z: 0}
        outSlope: {x: 0, y: 0, z: 0}
        tangentMode: 0
      - time: .958333313
        value: {x: .251980036, y: -2.24550789e-07, z: 2.74995397e-23}
        inSlope: {x: 0, y: 0, z: 0}
        outSlope: {x: 0, y: 0, z: 0}
        tangentMode: 0
      m_PreInfinity: 2
      m_PostInfinity: 2
    path: root_jnt/r_upperleg_jnt/r_lowerleg_jnt
  - curve:
      serializedVersion: 2
      m_Curve:
      - time: 0
        value: {x: .41817385, y: -5.77103663e-08, z: 1.48570881e-15}
        inSlope: {x: 0, y: 0, z: 0}
        outSlope: {x: 0, y: 0, z: 0}
        tangentMode: 0
      - time: .958333313
        value: {x: .41817385, y: -5.77103663e-08, z: 1.48570881e-15}
        inSlope: {x: 0, y: 0, z: 0}
        outSlope: {x: 0, y: 0, z: 0}
        tangentMode: 0
      m_PreInfinity: 2
      m_PostInfinity: 2
    path: root_jnt/r_upperleg_jnt/r_lowerleg_jnt/r_feet_jnt
  - curve:
      serializedVersion: 2
      m_Curve:
      - time: 0
        value: {x: .237858653, y: 1.01848023e-07, z: 8.88178433e-17}
        inSlope: {x: 0, y: 0, z: 0}
        outSlope: {x: 0, y: 0, z: 0}
        tangentMode: 0
      - time: .958333313
        value: {x: .237858653, y: 1.01848023e-07, z: 8.88178433e-17}
        inSlope: {x: 0, y: 0, z: 0}
        outSlope: {x: 0, y: 0, z: 0}
        tangentMode: 0
      m_PreInfinity: 2
      m_PostInfinity: 2
    path: root_jnt/r_upperleg_jnt/r_lowerleg_jnt/r_feet_jnt/r_feetbalr_jnt
  - curve:
      serializedVersion: 2
      m_Curve:
      - time: 0
        value: {x: .24948287, y: -.0163980555, z: 4.23226981e-10}
        inSlope: {x: 0, y: 0, z: 0}
        outSlope: {x: 0, y: 0, z: 0}
        tangentMode: 0
      - time: .958333313
        value: {x: .24948287, y: -.0163980555, z: 4.23226981e-10}
        inSlope: {x: 0, y: 0, z: 0}
        outSlope: {x: 0, y: 0, z: 0}
        tangentMode: 0
      m_PreInfinity: 2
      m_PostInfinity: 2
    path: root_jnt/r_upperleg_jnt/r_lowerleg_jnt/r_feet_jnt/r_feetbalr_jnt/r_feetballtip_jnt
  m_ScaleCurves:
  - curve:
      serializedVersion: 2
      m_Curve:
      - time: 0
        value: {x: 1, y: 1, z: 1}
        inSlope: {x: 0, y: 0, z: 0}
        outSlope: {x: 0, y: 0, z: 0}
        tangentMode: 26
      - time: .958333313
        value: {x: 1, y: 1, z: 1}
        inSlope: {x: 0, y: 0, z: 0}
        outSlope: {x: 0, y: 0, z: 0}
        tangentMode: 24
      m_PreInfinity: 2
      m_PostInfinity: 2
    path: root_jnt
  - curve:
      serializedVersion: 2
      m_Curve:
      - time: 0
        value: {x: 1, y: 1, z: 1}
        inSlope: {x: 0, y: 0, z: 0}
        outSlope: {x: 0, y: 0, z: 0}
        tangentMode: 0
      - time: .958333313
        value: {x: 1, y: 1, z: 1}
        inSlope: {x: 0, y: 0, z: 0}
        outSlope: {x: 0, y: 0, z: 0}
        tangentMode: 0
      m_PreInfinity: 2
      m_PostInfinity: 2
    path: root_jnt/back_jnt
  - curve:
      serializedVersion: 2
      m_Curve:
      - time: 0
        value: {x: 1, y: 1, z: 1}
        inSlope: {x: 0, y: 0, z: 0}
        outSlope: {x: 0, y: 0, z: 0}
        tangentMode: 0
      - time: .958333313
        value: {x: 1, y: 1, z: 1}
        inSlope: {x: 0, y: 0, z: 0}
        outSlope: {x: 0, y: 0, z: 0}
        tangentMode: 0
      m_PreInfinity: 2
      m_PostInfinity: 2
    path: root_jnt/back_jnt/chest_jnt
  - curve:
      serializedVersion: 2
      m_Curve:
      - time: 0
        value: {x: 1, y: 1, z: 1}
        inSlope: {x: 0, y: 0, z: 0}
        outSlope: {x: 0, y: 0, z: 0}
        tangentMode: 0
      - time: .958333313
        value: {x: 1, y: 1, z: 1}
        inSlope: {x: 0, y: 0, z: 0}
        outSlope: {x: 0, y: 0, z: 0}
        tangentMode: 0
      m_PreInfinity: 2
      m_PostInfinity: 2
    path: root_jnt/back_jnt/chest_jnt/head_jnt
  - curve:
      serializedVersion: 2
      m_Curve:
      - time: 0
        value: {x: 1, y: 1, z: 1}
        inSlope: {x: 0, y: 0, z: 0}
        outSlope: {x: 0, y: 0, z: 0}
        tangentMode: 0
      - time: .958333313
        value: {x: 1, y: 1, z: 1}
        inSlope: {x: 0, y: 0, z: 0}
        outSlope: {x: 0, y: 0, z: 0}
        tangentMode: 0
      m_PreInfinity: 2
      m_PostInfinity: 2
    path: root_jnt/back_jnt/chest_jnt/head_jnt/headtip_jnt
  - curve:
      serializedVersion: 2
      m_Curve:
      - time: 0
        value: {x: 1, y: 1, z: 1}
        inSlope: {x: 0, y: 0, z: 0}
        outSlope: {x: 0, y: 0, z: 0}
        tangentMode: 0
      - time: .958333313
        value: {x: 1, y: 1, z: 1}
        inSlope: {x: 0, y: 0, z: 0}
        outSlope: {x: 0, y: 0, z: 0}
        tangentMode: 0
      m_PreInfinity: 2
      m_PostInfinity: 2
    path: root_jnt/back_jnt/chest_jnt/l_upperarm_jnt
  - curve:
      serializedVersion: 2
      m_Curve:
      - time: 0
        value: {x: 1, y: 1, z: 1}
        inSlope: {x: 0, y: 0, z: 0}
        outSlope: {x: 0, y: 0, z: 0}
        tangentMode: 0
      - time: .958333313
        value: {x: 1, y: 1, z: 1}
        inSlope: {x: 0, y: 0, z: 0}
        outSlope: {x: 0, y: 0, z: 0}
        tangentMode: 0
      m_PreInfinity: 2
      m_PostInfinity: 2
    path: root_jnt/back_jnt/chest_jnt/l_upperarm_jnt/l_lowerarm_jnt
  - curve:
      serializedVersion: 2
      m_Curve:
      - time: 0
        value: {x: 1, y: 1, z: 1}
        inSlope: {x: 0, y: 0, z: 0}
        outSlope: {x: 0, y: 0, z: 0}
        tangentMode: 0
      - time: .958333313
        value: {x: 1, y: 1, z: 1}
        inSlope: {x: 0, y: 0, z: 0}
        outSlope: {x: 0, y: 0, z: 0}
        tangentMode: 0
      m_PreInfinity: 2
      m_PostInfinity: 2
    path: root_jnt/back_jnt/chest_jnt/l_upperarm_jnt/l_lowerarm_jnt/l_hand_jnt
  - curve:
      serializedVersion: 2
      m_Curve:
      - time: 0
        value: {x: 1, y: 1, z: 1}
        inSlope: {x: 0, y: 0, z: 0}
        outSlope: {x: 0, y: 0, z: 0}
        tangentMode: 0
      - time: .958333313
        value: {x: 1, y: 1, z: 1}
        inSlope: {x: 0, y: 0, z: 0}
        outSlope: {x: 0, y: 0, z: 0}
        tangentMode: 0
      m_PreInfinity: 2
      m_PostInfinity: 2
    path: root_jnt/back_jnt/chest_jnt/l_upperarm_jnt/l_lowerarm_jnt/l_hand_jnt/l_fingerB1_jnt
  - curve:
      serializedVersion: 2
      m_Curve:
      - time: 0
        value: {x: 1, y: 1, z: 1}
        inSlope: {x: 0, y: 0, z: 0}
        outSlope: {x: 0, y: 0, z: 0}
        tangentMode: 0
      - time: .958333313
        value: {x: 1, y: 1, z: 1}
        inSlope: {x: 0, y: 0, z: 0}
        outSlope: {x: 0, y: 0, z: 0}
        tangentMode: 606076939
      m_PreInfinity: 2
      m_PostInfinity: 2
    path: root_jnt/back_jnt/chest_jnt/l_upperarm_jnt/l_lowerarm_jnt/l_hand_jnt/l_fingerB1_jnt/l_fingerB2_jnt
  - curve:
      serializedVersion: 2
      m_Curve:
      - time: 0
        value: {x: 1, y: 1, z: 1}
        inSlope: {x: 0, y: 0, z: 0}
        outSlope: {x: 0, y: 0, z: 0}
        tangentMode: 0
      - time: .958333313
        value: {x: 1, y: 1, z: 1}
        inSlope: {x: 0, y: 0, z: 0}
        outSlope: {x: 0, y: 0, z: 0}
        tangentMode: 606076939
      m_PreInfinity: 2
      m_PostInfinity: 2
    path: root_jnt/back_jnt/chest_jnt/l_upperarm_jnt/l_lowerarm_jnt/l_hand_jnt/l_fingerB1_jnt/l_fingerB2_jnt/l_fingerB2tip_jnt
  - curve:
      serializedVersion: 2
      m_Curve:
      - time: 0
        value: {x: 1, y: 1, z: 1}
        inSlope: {x: 0, y: 0, z: 0}
        outSlope: {x: 0, y: 0, z: 0}
        tangentMode: 0
      - time: .958333313
        value: {x: 1, y: 1, z: 1}
        inSlope: {x: 0, y: 0, z: 0}
        outSlope: {x: 0, y: 0, z: 0}
        tangentMode: 606076939
      m_PreInfinity: 2
      m_PostInfinity: 2
    path: root_jnt/back_jnt/chest_jnt/l_upperarm_jnt/l_lowerarm_jnt/l_hand_jnt/l_fingerA1_jnt
  - curve:
      serializedVersion: 2
      m_Curve:
      - time: 0
        value: {x: 1, y: 1, z: 1}
        inSlope: {x: 0, y: 0, z: 0}
        outSlope: {x: 0, y: 0, z: 0}
        tangentMode: 0
      - time: .958333313
        value: {x: 1, y: 1, z: 1}
        inSlope: {x: 0, y: 0, z: 0}
        outSlope: {x: 0, y: 0, z: 0}
        tangentMode: 606076939
      m_PreInfinity: 2
      m_PostInfinity: 2
    path: root_jnt/back_jnt/chest_jnt/l_upperarm_jnt/l_lowerarm_jnt/l_hand_jnt/l_fingerA1_jnt/l_fingerA2_jnt
  - curve:
      serializedVersion: 2
      m_Curve:
      - time: 0
        value: {x: 1, y: 1, z: 1}
        inSlope: {x: 0, y: 0, z: 0}
        outSlope: {x: 0, y: 0, z: 0}
        tangentMode: 0
      - time: .958333313
        value: {x: 1, y: 1, z: 1}
        inSlope: {x: 0, y: 0, z: 0}
        outSlope: {x: 0, y: 0, z: 0}
        tangentMode: 606076939
      m_PreInfinity: 2
      m_PostInfinity: 2
    path: root_jnt/back_jnt/chest_jnt/l_upperarm_jnt/l_lowerarm_jnt/l_hand_jnt/l_fingerA1_jnt/l_fingerA2_jnt/l_fingerA2tip_jnt
  - curve:
      serializedVersion: 2
      m_Curve:
      - time: 0
        value: {x: 1, y: 1, z: 1}
        inSlope: {x: 0, y: 0, z: 0}
        outSlope: {x: 0, y: 0, z: 0}
        tangentMode: 0
      - time: .958333313
        value: {x: 1, y: 1, z: 1}
        inSlope: {x: 0, y: 0, z: 0}
        outSlope: {x: 0, y: 0, z: 0}
        tangentMode: 606076939
      m_PreInfinity: 2
      m_PostInfinity: 2
    path: root_jnt/back_jnt/chest_jnt/l_upperarm_jnt/l_lowerarm_jnt/l_hand_jnt/l_thumb1_jnt
  - curve:
      serializedVersion: 2
      m_Curve:
      - time: 0
        value: {x: 1, y: 1, z: 1}
        inSlope: {x: 0, y: 0, z: 0}
        outSlope: {x: 0, y: 0, z: 0}
        tangentMode: 0
      - time: .958333313
        value: {x: 1, y: 1, z: 1}
        inSlope: {x: 0, y: 0, z: 0}
        outSlope: {x: 0, y: 0, z: 0}
        tangentMode: 606076939
      m_PreInfinity: 2
      m_PostInfinity: 2
    path: root_jnt/back_jnt/chest_jnt/l_upperarm_jnt/l_lowerarm_jnt/l_hand_jnt/l_thumb1_jnt/l_thumb2_jnt
  - curve:
      serializedVersion: 2
      m_Curve:
      - time: 0
        value: {x: 1, y: 1, z: 1}
        inSlope: {x: 0, y: 0, z: 0}
        outSlope: {x: 0, y: 0, z: 0}
        tangentMode: 0
      - time: .958333313
        value: {x: 1, y: 1, z: 1}
        inSlope: {x: 0, y: 0, z: 0}
        outSlope: {x: 0, y: 0, z: 0}
        tangentMode: 606076939
      m_PreInfinity: 2
      m_PostInfinity: 2
    path: root_jnt/back_jnt/chest_jnt/l_upperarm_jnt/l_lowerarm_jnt/l_hand_jnt/l_thumb1_jnt/l_thumb2_jnt/l_thumb2tip_jnt
  - curve:
      serializedVersion: 2
      m_Curve:
      - time: 0
        value: {x: 1, y: 1, z: 1}
        inSlope: {x: 0, y: 0, z: 0}
        outSlope: {x: 0, y: 0, z: 0}
        tangentMode: 0
      - time: .958333313
        value: {x: 1, y: 1, z: 1}
        inSlope: {x: 0, y: 0, z: 0}
        outSlope: {x: 0, y: 0, z: 0}
        tangentMode: 606076939
      m_PreInfinity: 2
      m_PostInfinity: 2
    path: root_jnt/back_jnt/chest_jnt/r_upperarm_jnt
  - curve:
      serializedVersion: 2
      m_Curve:
      - time: 0
        value: {x: 1, y: 1, z: 1}
        inSlope: {x: 0, y: 0, z: 0}
        outSlope: {x: 0, y: 0, z: 0}
        tangentMode: 0
      - time: .958333313
        value: {x: 1, y: 1, z: 1}
        inSlope: {x: 0, y: 0, z: 0}
        outSlope: {x: 0, y: 0, z: 0}
        tangentMode: 606076939
      m_PreInfinity: 2
      m_PostInfinity: 2
    path: root_jnt/back_jnt/chest_jnt/r_upperarm_jnt/r_lowerarm_jnt
  - curve:
      serializedVersion: 2
      m_Curve:
      - time: 0
        value: {x: 1, y: 1, z: 1}
        inSlope: {x: 0, y: 0, z: 0}
        outSlope: {x: 0, y: 0, z: 0}
        tangentMode: 0
      - time: .958333313
        value: {x: 1, y: 1, z: 1}
        inSlope: {x: 0, y: 0, z: 0}
        outSlope: {x: 0, y: 0, z: 0}
        tangentMode: 606076939
      m_PreInfinity: 2
      m_PostInfinity: 2
    path: root_jnt/back_jnt/chest_jnt/r_upperarm_jnt/r_lowerarm_jnt/r_hand_jnt
  - curve:
      serializedVersion: 2
      m_Curve:
      - time: 0
        value: {x: 1, y: 1, z: 1}
        inSlope: {x: 0, y: 0, z: 0}
        outSlope: {x: 0, y: 0, z: 0}
        tangentMode: 0
      - time: .958333313
        value: {x: 1, y: 1, z: 1}
        inSlope: {x: 0, y: 0, z: 0}
        outSlope: {x: 0, y: 0, z: 0}
        tangentMode: 606076939
      m_PreInfinity: 2
      m_PostInfinity: 2
    path: root_jnt/back_jnt/chest_jnt/r_upperarm_jnt/r_lowerarm_jnt/r_hand_jnt/r_fingerB1_jnt
  - curve:
      serializedVersion: 2
      m_Curve:
      - time: 0
        value: {x: 1, y: 1, z: 1}
        inSlope: {x: 0, y: 0, z: 0}
        outSlope: {x: 0, y: 0, z: 0}
        tangentMode: 0
      - time: .958333313
        value: {x: 1, y: 1, z: 1}
        inSlope: {x: 0, y: 0, z: 0}
        outSlope: {x: 0, y: 0, z: 0}
        tangentMode: 606076939
      m_PreInfinity: 2
      m_PostInfinity: 2
    path: root_jnt/back_jnt/chest_jnt/r_upperarm_jnt/r_lowerarm_jnt/r_hand_jnt/r_fingerB1_jnt/r_fingerB2_jnt
  - curve:
      serializedVersion: 2
      m_Curve:
      - time: 0
        value: {x: 1, y: 1, z: 1}
        inSlope: {x: 0, y: 0, z: 0}
        outSlope: {x: 0, y: 0, z: 0}
        tangentMode: 0
      - time: .958333313
        value: {x: 1, y: 1, z: 1}
        inSlope: {x: 0, y: 0, z: 0}
        outSlope: {x: 0, y: 0, z: 0}
        tangentMode: 606076939
      m_PreInfinity: 2
      m_PostInfinity: 2
    path: root_jnt/back_jnt/chest_jnt/r_upperarm_jnt/r_lowerarm_jnt/r_hand_jnt/r_fingerB1_jnt/r_fingerB2_jnt/r_fingerB2tip_jnt
  - curve:
      serializedVersion: 2
      m_Curve:
      - time: 0
        value: {x: 1, y: 1, z: 1}
        inSlope: {x: 0, y: 0, z: 0}
        outSlope: {x: 0, y: 0, z: 0}
        tangentMode: 0
      - time: .958333313
        value: {x: 1, y: 1, z: 1}
        inSlope: {x: 0, y: 0, z: 0}
        outSlope: {x: 0, y: 0, z: 0}
        tangentMode: 606076939
      m_PreInfinity: 2
      m_PostInfinity: 2
    path: root_jnt/back_jnt/chest_jnt/r_upperarm_jnt/r_lowerarm_jnt/r_hand_jnt/r_fingerA1_jnt
  - curve:
      serializedVersion: 2
      m_Curve:
      - time: 0
        value: {x: 1, y: 1, z: 1}
        inSlope: {x: 0, y: 0, z: 0}
        outSlope: {x: 0, y: 0, z: 0}
        tangentMode: 0
      - time: .958333313
        value: {x: 1, y: 1, z: 1}
        inSlope: {x: 0, y: 0, z: 0}
        outSlope: {x: 0, y: 0, z: 0}
        tangentMode: 606076939
      m_PreInfinity: 2
      m_PostInfinity: 2
    path: root_jnt/back_jnt/chest_jnt/r_upperarm_jnt/r_lowerarm_jnt/r_hand_jnt/r_fingerA1_jnt/r_fingerA2_jnt
  - curve:
      serializedVersion: 2
      m_Curve:
      - time: 0
        value: {x: 1, y: 1, z: 1}
        inSlope: {x: 0, y: 0, z: 0}
        outSlope: {x: 0, y: 0, z: 0}
        tangentMode: 0
      - time: .958333313
        value: {x: 1, y: 1, z: 1}
        inSlope: {x: 0, y: 0, z: 0}
        outSlope: {x: 0, y: 0, z: 0}
        tangentMode: 606076939
      m_PreInfinity: 2
      m_PostInfinity: 2
    path: root_jnt/back_jnt/chest_jnt/r_upperarm_jnt/r_lowerarm_jnt/r_hand_jnt/r_fingerA1_jnt/r_fingerA2_jnt/r_fingerA2tip_jnt
  - curve:
      serializedVersion: 2
      m_Curve:
      - time: 0
        value: {x: 1, y: 1, z: 1}
        inSlope: {x: 0, y: 0, z: 0}
        outSlope: {x: 0, y: 0, z: 0}
        tangentMode: 0
      - time: .958333313
        value: {x: 1, y: 1, z: 1}
        inSlope: {x: 0, y: 0, z: 0}
        outSlope: {x: 0, y: 0, z: 0}
        tangentMode: 606076939
      m_PreInfinity: 2
      m_PostInfinity: 2
    path: root_jnt/back_jnt/chest_jnt/r_upperarm_jnt/r_lowerarm_jnt/r_hand_jnt/r_thumb1_jnt
  - curve:
      serializedVersion: 2
      m_Curve:
      - time: 0
        value: {x: 1, y: 1, z: 1}
        inSlope: {x: 0, y: 0, z: 0}
        outSlope: {x: 0, y: 0, z: 0}
        tangentMode: 0
      - time: .958333313
        value: {x: 1, y: 1, z: 1}
        inSlope: {x: 0, y: 0, z: 0}
        outSlope: {x: 0, y: 0, z: 0}
        tangentMode: 606076939
      m_PreInfinity: 2
      m_PostInfinity: 2
    path: root_jnt/back_jnt/chest_jnt/r_upperarm_jnt/r_lowerarm_jnt/r_hand_jnt/r_thumb1_jnt/r_thumb2_jnt
  - curve:
      serializedVersion: 2
      m_Curve:
      - time: 0
        value: {x: 1, y: 1, z: 1}
        inSlope: {x: 0, y: 0, z: 0}
        outSlope: {x: 0, y: 0, z: 0}
        tangentMode: 0
      - time: .958333313
        value: {x: 1, y: 1, z: 1}
        inSlope: {x: 0, y: 0, z: 0}
        outSlope: {x: 0, y: 0, z: 0}
        tangentMode: 606076939
      m_PreInfinity: 2
      m_PostInfinity: 2
    path: root_jnt/back_jnt/chest_jnt/r_upperarm_jnt/r_lowerarm_jnt/r_hand_jnt/r_thumb1_jnt/r_thumb2_jnt/r_thumb2tip_jnt
  - curve:
      serializedVersion: 2
      m_Curve:
      - time: 0
        value: {x: 1, y: 1, z: 1}
        inSlope: {x: 0, y: 0, z: 0}
        outSlope: {x: 0, y: 0, z: 0}
        tangentMode: -1142277120
      - time: .958333313
        value: {x: 1, y: 1, z: 1}
        inSlope: {x: 0, y: 0, z: 0}
        outSlope: {x: 0, y: 0, z: 0}
        tangentMode: 0
      m_PreInfinity: 2
      m_PostInfinity: 2
    path: root_jnt/l_upperleg_jnt
  - curve:
      serializedVersion: 2
      m_Curve:
      - time: 0
        value: {x: 1, y: 1, z: 1}
        inSlope: {x: 0, y: 0, z: 0}
        outSlope: {x: 0, y: 0, z: 0}
        tangentMode: 0
      - time: .958333313
        value: {x: 1, y: 1, z: 1}
        inSlope: {x: 0, y: 0, z: 0}
        outSlope: {x: 0, y: 0, z: 0}
        tangentMode: 0
      m_PreInfinity: 2
      m_PostInfinity: 2
    path: root_jnt/l_upperleg_jnt/l_lowerleg_jnt
  - curve:
      serializedVersion: 2
      m_Curve:
      - time: 0
        value: {x: 1, y: 1, z: 1}
        inSlope: {x: 0, y: 0, z: 0}
        outSlope: {x: 0, y: 0, z: 0}
        tangentMode: 0
      - time: .958333313
        value: {x: 1, y: 1, z: 1}
        inSlope: {x: 0, y: 0, z: 0}
        outSlope: {x: 0, y: 0, z: 0}
        tangentMode: 0
      m_PreInfinity: 2
      m_PostInfinity: 2
    path: root_jnt/l_upperleg_jnt/l_lowerleg_jnt/l_feet_jnt
  - curve:
      serializedVersion: 2
      m_Curve:
      - time: 0
        value: {x: 1, y: 1, z: 1}
        inSlope: {x: 0, y: 0, z: 0}
        outSlope: {x: 0, y: 0, z: 0}
        tangentMode: 0
      - time: .958333313
        value: {x: 1, y: 1, z: 1}
        inSlope: {x: 0, y: 0, z: 0}
        outSlope: {x: 0, y: 0, z: 0}
        tangentMode: 0
      m_PreInfinity: 2
      m_PostInfinity: 2
    path: root_jnt/l_upperleg_jnt/l_lowerleg_jnt/l_feet_jnt/l_feetball_jnt
  - curve:
      serializedVersion: 2
      m_Curve:
      - time: 0
        value: {x: 1, y: 1, z: 1}
        inSlope: {x: 0, y: 0, z: 0}
        outSlope: {x: 0, y: 0, z: 0}
        tangentMode: 0
      - time: .958333313
        value: {x: 1, y: 1, z: 1}
        inSlope: {x: 0, y: 0, z: 0}
        outSlope: {x: 0, y: 0, z: 0}
        tangentMode: 0
      m_PreInfinity: 2
      m_PostInfinity: 2
    path: root_jnt/l_upperleg_jnt/l_lowerleg_jnt/l_feet_jnt/l_feetball_jnt/l_feetballtip_jnt
  - curve:
      serializedVersion: 2
      m_Curve:
      - time: 0
        value: {x: 1, y: 1, z: 1}
        inSlope: {x: 0, y: 0, z: 0}
        outSlope: {x: 0, y: 0, z: 0}
        tangentMode: 0
      - time: .958333313
        value: {x: 1, y: 1, z: 1}
        inSlope: {x: 0, y: 0, z: 0}
        outSlope: {x: 0, y: 0, z: 0}
        tangentMode: 0
      m_PreInfinity: 2
      m_PostInfinity: 2
    path: root_jnt/r_upperleg_jnt
  - curve:
      serializedVersion: 2
      m_Curve:
      - time: 0
        value: {x: 1, y: 1, z: 1}
        inSlope: {x: 0, y: 0, z: 0}
        outSlope: {x: 0, y: 0, z: 0}
        tangentMode: 0
      - time: .958333313
        value: {x: 1, y: 1, z: 1}
        inSlope: {x: 0, y: 0, z: 0}
        outSlope: {x: 0, y: 0, z: 0}
        tangentMode: 0
      m_PreInfinity: 2
      m_PostInfinity: 2
    path: root_jnt/r_upperleg_jnt/r_lowerleg_jnt
  - curve:
      serializedVersion: 2
      m_Curve:
      - time: 0
        value: {x: 1, y: 1, z: 1}
        inSlope: {x: 0, y: 0, z: 0}
        outSlope: {x: 0, y: 0, z: 0}
        tangentMode: 0
      - time: .958333313
        value: {x: 1, y: 1, z: 1}
        inSlope: {x: 0, y: 0, z: 0}
        outSlope: {x: 0, y: 0, z: 0}
        tangentMode: 0
      m_PreInfinity: 2
      m_PostInfinity: 2
    path: root_jnt/r_upperleg_jnt/r_lowerleg_jnt/r_feet_jnt
  - curve:
      serializedVersion: 2
      m_Curve:
      - time: 0
        value: {x: 1, y: 1, z: 1}
        inSlope: {x: 0, y: 0, z: 0}
        outSlope: {x: 0, y: 0, z: 0}
        tangentMode: 0
      - time: .958333313
        value: {x: 1, y: 1, z: 1}
        inSlope: {x: 0, y: 0, z: 0}
        outSlope: {x: 0, y: 0, z: 0}
        tangentMode: 0
      m_PreInfinity: 2
      m_PostInfinity: 2
    path: root_jnt/r_upperleg_jnt/r_lowerleg_jnt/r_feet_jnt/r_feetbalr_jnt
  - curve:
      serializedVersion: 2
      m_Curve:
      - time: 0
        value: {x: 1, y: 1, z: 1}
        inSlope: {x: 0, y: 0, z: 0}
        outSlope: {x: 0, y: 0, z: 0}
        tangentMode: 0
      - time: .958333313
        value: {x: 1, y: 1, z: 1}
        inSlope: {x: 0, y: 0, z: 0}
        outSlope: {x: 0, y: 0, z: 0}
        tangentMode: 0
      m_PreInfinity: 2
      m_PostInfinity: 2
    path: root_jnt/r_upperleg_jnt/r_lowerleg_jnt/r_feet_jnt/r_feetbalr_jnt/r_feetballtip_jnt
  m_FloatCurves: []
  m_PPtrCurves: []
  m_SampleRate: 24
  m_WrapMode: 0
  m_Bounds:
    m_Center: {x: 0, y: 0, z: 0}
    m_Extent: {x: 0, y: 0, z: 0}
  m_ClipBindingConstant:
    genericBindings: []
    pptrCurveMapping: []
  m_AnimationClipSettings:
    serializedVersion: 2
    m_StartTime: 0
    m_StopTime: .958333313
    m_OrientationOffsetY: 0
    m_Level: 0
    m_CycleOffset: 0
    m_LoopTime: 0
    m_LoopBlend: 0
    m_LoopBlendOrientation: 0
    m_LoopBlendPositionY: 0
    m_LoopBlendPositionXZ: 0
    m_KeepOriginalOrientation: 0
    m_KeepOriginalPositionY: 1
    m_KeepOriginalPositionXZ: 0
    m_HeightFromFeet: 0
    m_Mirror: 0
  m_EditorCurves: []
  m_EulerEditorCurves: []
  m_Events: []
